(kicad_symbol_lib
	(version 20231120)
	(generator "kicad_symbol_editor")
	(generator_version "8.0")
	(symbol "ADAU1450"
		(exclude_from_sim no)
		(in_bom yes)
		(on_board yes)
		(property "Reference" "U"
			(at -17.78 46.99 0)
			(effects
				(font
					(size 1.27 1.27)
				)
			)
		)
		(property "Value" "ADAU1450"
			(at 15.24 46.99 0)
			(effects
				(font
					(size 1.27 1.27)
				)
			)
		)
		(property "Footprint" "Package_CSP:LFCSP-72-1EP_10x10mm_P0.5mm_EP5.3x5.3mm"
			(at 0 0 0)
			(effects
				(font
					(size 1.27 1.27)
				)
				(hide yes)
			)
		)
		(property "Datasheet" "https://www.analog.com/media/en/technical-documentation/data-sheets/ADAU1452_1451_1450.pdf"
			(at 0 0 0)
			(effects
				(font
					(size 1.27 1.27)
				)
				(hide yes)
			)
		)
		(property "Description" "SigmaDSP SigmaDSP Digital Audio Processor, 147.456 MHz, 8kword Data RAM, I2C/SPI, LFCSP-72"
			(at 0 0 0)
			(effects
				(font
					(size 1.27 1.27)
				)
				(hide yes)
			)
		)
		(property "ki_keywords" "sigmadsp audio"
			(at 0 0 0)
			(effects
				(font
					(size 1.27 1.27)
				)
				(hide yes)
			)
		)
		(property "ki_fp_filters" "LFCSP*1EP*10x10mm*P0.5mm*"
			(at 0 0 0)
			(effects
				(font
					(size 1.27 1.27)
				)
				(hide yes)
			)
		)
		(symbol "ADAU1450_0_1"
			(rectangle
				(start -20.32 45.72)
				(end 20.32 -45.72)
				(stroke
					(width 0.254)
					(type default)
				)
				(fill
					(type background)
				)
			)
		)
		(symbol "ADAU1450_1_1"
			(pin power_in line
				(at 2.54 -48.26 90)
				(length 2.54)
				(name "DGND"
					(effects
						(font
							(size 1.27 1.27)
						)
					)
				)
				(number "1"
					(effects
						(font
							(size 1.27 1.27)
						)
					)
				)
			)
			(pin input line
				(at -22.86 -33.02 0)
				(length 2.54)
				(name "AUXADC2"
					(effects
						(font
							(size 1.27 1.27)
						)
					)
				)
				(number "10"
					(effects
						(font
							(size 1.27 1.27)
						)
					)
				)
			)
			(pin input line
				(at -22.86 -35.56 0)
				(length 2.54)
				(name "AUXADC3"
					(effects
						(font
							(size 1.27 1.27)
						)
					)
				)
				(number "11"
					(effects
						(font
							(size 1.27 1.27)
						)
					)
				)
			)
			(pin input line
				(at -22.86 -38.1 0)
				(length 2.54)
				(name "AUXADC4"
					(effects
						(font
							(size 1.27 1.27)
						)
					)
				)
				(number "12"
					(effects
						(font
							(size 1.27 1.27)
						)
					)
				)
			)
			(pin input line
				(at -22.86 -40.64 0)
				(length 2.54)
				(name "AUXADC5"
					(effects
						(font
							(size 1.27 1.27)
						)
					)
				)
				(number "13"
					(effects
						(font
							(size 1.27 1.27)
						)
					)
				)
			)
			(pin power_in line
				(at -5.08 -48.26 90)
				(length 2.54)
				(name "PGND"
					(effects
						(font
							(size 1.27 1.27)
						)
					)
				)
				(number "14"
					(effects
						(font
							(size 1.27 1.27)
						)
					)
				)
			)
			(pin power_in line
				(at -5.08 48.26 270)
				(length 2.54)
				(name "PVDD"
					(effects
						(font
							(size 1.27 1.27)
						)
					)
				)
				(number "15"
					(effects
						(font
							(size 1.27 1.27)
						)
					)
				)
			)
			(pin passive line
				(at -22.86 43.18 0)
				(length 2.54)
				(name "PLLFILT"
					(effects
						(font
							(size 1.27 1.27)
						)
					)
				)
				(number "16"
					(effects
						(font
							(size 1.27 1.27)
						)
					)
				)
			)
			(pin passive line
				(at 2.54 -48.26 90)
				(length 2.54) hide
				(name "DGND"
					(effects
						(font
							(size 1.27 1.27)
						)
					)
				)
				(number "17"
					(effects
						(font
							(size 1.27 1.27)
						)
					)
				)
			)
			(pin passive line
				(at 0 48.26 270)
				(length 2.54) hide
				(name "IOVDD"
					(effects
						(font
							(size 1.27 1.27)
						)
					)
				)
				(number "18"
					(effects
						(font
							(size 1.27 1.27)
						)
					)
				)
			)
			(pin passive line
				(at 2.54 -48.26 90)
				(length 2.54) hide
				(name "DGND"
					(effects
						(font
							(size 1.27 1.27)
						)
					)
				)
				(number "19"
					(effects
						(font
							(size 1.27 1.27)
						)
					)
				)
			)
			(pin power_in line
				(at 0 48.26 270)
				(length 2.54)
				(name "IOVDD"
					(effects
						(font
							(size 1.27 1.27)
						)
					)
				)
				(number "2"
					(effects
						(font
							(size 1.27 1.27)
						)
					)
				)
			)
			(pin power_in line
				(at 2.54 48.26 270)
				(length 2.54)
				(name "DVDD"
					(effects
						(font
							(size 1.27 1.27)
						)
					)
				)
				(number "20"
					(effects
						(font
							(size 1.27 1.27)
						)
					)
				)
			)
			(pin input line
				(at -22.86 33.02 0)
				(length 2.54)
				(name "XTALIN/MCLK"
					(effects
						(font
							(size 1.27 1.27)
						)
					)
				)
				(number "21"
					(effects
						(font
							(size 1.27 1.27)
						)
					)
				)
			)
			(pin output line
				(at -22.86 25.4 0)
				(length 2.54)
				(name "XTALOUT"
					(effects
						(font
							(size 1.27 1.27)
						)
					)
				)
				(number "22"
					(effects
						(font
							(size 1.27 1.27)
						)
					)
				)
			)
			(pin output line
				(at 22.86 33.02 180)
				(length 2.54)
				(name "CLKOUT"
					(effects
						(font
							(size 1.27 1.27)
						)
					)
				)
				(number "23"
					(effects
						(font
							(size 1.27 1.27)
						)
					)
				)
			)
			(pin input line
				(at -22.86 -22.86 0)
				(length 2.54)
				(name "~{RESET}"
					(effects
						(font
							(size 1.27 1.27)
						)
					)
				)
				(number "24"
					(effects
						(font
							(size 1.27 1.27)
						)
					)
				)
			)
			(pin passive line
				(at 2.54 -48.26 90)
				(length 2.54) hide
				(name "DGND"
					(effects
						(font
							(size 1.27 1.27)
						)
					)
				)
				(number "25"
					(effects
						(font
							(size 1.27 1.27)
						)
					)
				)
			)
			(pin bidirectional line
				(at 22.86 -20.32 180)
				(length 2.54)
				(name "SS_M/MP0"
					(effects
						(font
							(size 1.27 1.27)
						)
					)
				)
				(number "26"
					(effects
						(font
							(size 1.27 1.27)
						)
					)
				)
			)
			(pin bidirectional line
				(at 22.86 -22.86 180)
				(length 2.54)
				(name "MOSI_M/MP1"
					(effects
						(font
							(size 1.27 1.27)
						)
					)
				)
				(number "27"
					(effects
						(font
							(size 1.27 1.27)
						)
					)
				)
			)
			(pin bidirectional line
				(at 22.86 -25.4 180)
				(length 2.54)
				(name "SCL_M/SCLK_M/MP2"
					(effects
						(font
							(size 1.27 1.27)
						)
					)
				)
				(number "28"
					(effects
						(font
							(size 1.27 1.27)
						)
					)
				)
			)
			(pin bidirectional line
				(at 22.86 -27.94 180)
				(length 2.54)
				(name "SDA_M/MISO_M/MP3"
					(effects
						(font
							(size 1.27 1.27)
						)
					)
				)
				(number "29"
					(effects
						(font
							(size 1.27 1.27)
						)
					)
				)
			)
			(pin output line
				(at 22.86 43.18 180)
				(length 2.54)
				(name "VDRIVE"
					(effects
						(font
							(size 1.27 1.27)
						)
					)
				)
				(number "3"
					(effects
						(font
							(size 1.27 1.27)
						)
					)
				)
			)
			(pin bidirectional line
				(at 22.86 -30.48 180)
				(length 2.54)
				(name "MISO/SDA"
					(effects
						(font
							(size 1.27 1.27)
						)
					)
				)
				(number "30"
					(effects
						(font
							(size 1.27 1.27)
						)
					)
				)
			)
			(pin input line
				(at 22.86 -33.02 180)
				(length 2.54)
				(name "SCLK/SCL"
					(effects
						(font
							(size 1.27 1.27)
						)
					)
				)
				(number "31"
					(effects
						(font
							(size 1.27 1.27)
						)
					)
				)
			)
			(pin input line
				(at 22.86 -35.56 180)
				(length 2.54)
				(name "MOSI/ADDR1"
					(effects
						(font
							(size 1.27 1.27)
						)
					)
				)
				(number "32"
					(effects
						(font
							(size 1.27 1.27)
						)
					)
				)
			)
			(pin input line
				(at 22.86 -38.1 180)
				(length 2.54)
				(name "SS/ADDR0"
					(effects
						(font
							(size 1.27 1.27)
						)
					)
				)
				(number "33"
					(effects
						(font
							(size 1.27 1.27)
						)
					)
				)
			)
			(pin input line
				(at -22.86 -20.32 0)
				(length 2.54)
				(name "SELFBOOT"
					(effects
						(font
							(size 1.27 1.27)
						)
					)
				)
				(number "34"
					(effects
						(font
							(size 1.27 1.27)
						)
					)
				)
			)
			(pin passive line
				(at 2.54 48.26 270)
				(length 2.54) hide
				(name "DVDD"
					(effects
						(font
							(size 1.27 1.27)
						)
					)
				)
				(number "35"
					(effects
						(font
							(size 1.27 1.27)
						)
					)
				)
			)
			(pin passive line
				(at 2.54 -48.26 90)
				(length 2.54) hide
				(name "DGND"
					(effects
						(font
							(size 1.27 1.27)
						)
					)
				)
				(number "36"
					(effects
						(font
							(size 1.27 1.27)
						)
					)
				)
			)
			(pin passive line
				(at 2.54 -48.26 90)
				(length 2.54) hide
				(name "DGND"
					(effects
						(font
							(size 1.27 1.27)
						)
					)
				)
				(number "37"
					(effects
						(font
							(size 1.27 1.27)
						)
					)
				)
			)
			(pin passive line
				(at 0 48.26 270)
				(length 2.54) hide
				(name "IOVDD"
					(effects
						(font
							(size 1.27 1.27)
						)
					)
				)
				(number "38"
					(effects
						(font
							(size 1.27 1.27)
						)
					)
				)
			)
			(pin bidirectional line
				(at 22.86 20.32 180)
				(length 2.54)
				(name "LRCLK_OUT0/MP4"
					(effects
						(font
							(size 1.27 1.27)
						)
					)
				)
				(number "39"
					(effects
						(font
							(size 1.27 1.27)
						)
					)
				)
			)
			(pin input line
				(at -22.86 38.1 0)
				(length 2.54)
				(name "SPDIFIN"
					(effects
						(font
							(size 1.27 1.27)
						)
					)
				)
				(number "4"
					(effects
						(font
							(size 1.27 1.27)
						)
					)
				)
			)
			(pin bidirectional line
				(at 22.86 17.78 180)
				(length 2.54)
				(name "BCLK_OUT0"
					(effects
						(font
							(size 1.27 1.27)
						)
					)
				)
				(number "40"
					(effects
						(font
							(size 1.27 1.27)
						)
					)
				)
			)
			(pin output line
				(at 22.86 15.24 180)
				(length 2.54)
				(name "SDATA_OUT0"
					(effects
						(font
							(size 1.27 1.27)
						)
					)
				)
				(number "41"
					(effects
						(font
							(size 1.27 1.27)
						)
					)
				)
			)
			(pin bidirectional line
				(at 22.86 10.16 180)
				(length 2.54)
				(name "LRCLK_OUT1/MP5"
					(effects
						(font
							(size 1.27 1.27)
						)
					)
				)
				(number "42"
					(effects
						(font
							(size 1.27 1.27)
						)
					)
				)
			)
			(pin bidirectional line
				(at 22.86 7.62 180)
				(length 2.54)
				(name "BCLK_OUT1"
					(effects
						(font
							(size 1.27 1.27)
						)
					)
				)
				(number "43"
					(effects
						(font
							(size 1.27 1.27)
						)
					)
				)
			)
			(pin output line
				(at 22.86 5.08 180)
				(length 2.54)
				(name "SDATA_OUT1"
					(effects
						(font
							(size 1.27 1.27)
						)
					)
				)
				(number "44"
					(effects
						(font
							(size 1.27 1.27)
						)
					)
				)
			)
			(pin bidirectional line
				(at 22.86 -40.64 180)
				(length 2.54)
				(name "MP6"
					(effects
						(font
							(size 1.27 1.27)
						)
					)
				)
				(number "45"
					(effects
						(font
							(size 1.27 1.27)
						)
					)
				)
			)
			(pin bidirectional line
				(at 22.86 -43.18 180)
				(length 2.54)
				(name "MP7"
					(effects
						(font
							(size 1.27 1.27)
						)
					)
				)
				(number "46"
					(effects
						(font
							(size 1.27 1.27)
						)
					)
				)
			)
			(pin bidirectional line
				(at 22.86 0 180)
				(length 2.54)
				(name "LRCLK_OUT2/MP8"
					(effects
						(font
							(size 1.27 1.27)
						)
					)
				)
				(number "47"
					(effects
						(font
							(size 1.27 1.27)
						)
					)
				)
			)
			(pin bidirectional line
				(at 22.86 -2.54 180)
				(length 2.54)
				(name "BCLK_OUT2"
					(effects
						(font
							(size 1.27 1.27)
						)
					)
				)
				(number "48"
					(effects
						(font
							(size 1.27 1.27)
						)
					)
				)
			)
			(pin output line
				(at 22.86 -5.08 180)
				(length 2.54)
				(name "SDATA_OUT2"
					(effects
						(font
							(size 1.27 1.27)
						)
					)
				)
				(number "49"
					(effects
						(font
							(size 1.27 1.27)
						)
					)
				)
			)
			(pin output line
				(at 22.86 38.1 180)
				(length 2.54)
				(name "SPDIFOUT"
					(effects
						(font
							(size 1.27 1.27)
						)
					)
				)
				(number "5"
					(effects
						(font
							(size 1.27 1.27)
						)
					)
				)
			)
			(pin bidirectional line
				(at 22.86 -10.16 180)
				(length 2.54)
				(name "LRCLK_OUT3/MP9"
					(effects
						(font
							(size 1.27 1.27)
						)
					)
				)
				(number "50"
					(effects
						(font
							(size 1.27 1.27)
						)
					)
				)
			)
			(pin bidirectional line
				(at 22.86 -12.7 180)
				(length 2.54)
				(name "BCLK_OUT3"
					(effects
						(font
							(size 1.27 1.27)
						)
					)
				)
				(number "51"
					(effects
						(font
							(size 1.27 1.27)
						)
					)
				)
			)
			(pin output line
				(at 22.86 -15.24 180)
				(length 2.54)
				(name "SDATA_OUT3"
					(effects
						(font
							(size 1.27 1.27)
						)
					)
				)
				(number "52"
					(effects
						(font
							(size 1.27 1.27)
						)
					)
				)
			)
			(pin passive line
				(at 2.54 48.26 270)
				(length 2.54) hide
				(name "DVDD"
					(effects
						(font
							(size 1.27 1.27)
						)
					)
				)
				(number "53"
					(effects
						(font
							(size 1.27 1.27)
						)
					)
				)
			)
			(pin passive line
				(at 2.54 -48.26 90)
				(length 2.54) hide
				(name "DGND"
					(effects
						(font
							(size 1.27 1.27)
						)
					)
				)
				(number "54"
					(effects
						(font
							(size 1.27 1.27)
						)
					)
				)
			)
			(pin passive line
				(at 2.54 -48.26 90)
				(length 2.54) hide
				(name "DGND"
					(effects
						(font
							(size 1.27 1.27)
						)
					)
				)
				(number "55"
					(effects
						(font
							(size 1.27 1.27)
						)
					)
				)
			)
			(pin passive line
				(at 0 48.26 270)
				(length 2.54) hide
				(name "IOVDD"
					(effects
						(font
							(size 1.27 1.27)
						)
					)
				)
				(number "56"
					(effects
						(font
							(size 1.27 1.27)
						)
					)
				)
			)
			(pin bidirectional line
				(at -22.86 20.32 0)
				(length 2.54)
				(name "BCLK_IN0"
					(effects
						(font
							(size 1.27 1.27)
						)
					)
				)
				(number "57"
					(effects
						(font
							(size 1.27 1.27)
						)
					)
				)
			)
			(pin bidirectional line
				(at -22.86 17.78 0)
				(length 2.54)
				(name "LRCLK_IN0/MP10"
					(effects
						(font
							(size 1.27 1.27)
						)
					)
				)
				(number "58"
					(effects
						(font
							(size 1.27 1.27)
						)
					)
				)
			)
			(pin input line
				(at -22.86 15.24 0)
				(length 2.54)
				(name "SDATA_IN0"
					(effects
						(font
							(size 1.27 1.27)
						)
					)
				)
				(number "59"
					(effects
						(font
							(size 1.27 1.27)
						)
					)
				)
			)
			(pin power_in line
				(at -2.54 -48.26 90)
				(length 2.54)
				(name "AGND"
					(effects
						(font
							(size 1.27 1.27)
						)
					)
				)
				(number "6"
					(effects
						(font
							(size 1.27 1.27)
						)
					)
				)
			)
			(pin bidirectional line
				(at -22.86 10.16 0)
				(length 2.54)
				(name "BCLK_IN1"
					(effects
						(font
							(size 1.27 1.27)
						)
					)
				)
				(number "60"
					(effects
						(font
							(size 1.27 1.27)
						)
					)
				)
			)
			(pin bidirectional line
				(at -22.86 7.62 0)
				(length 2.54)
				(name "LRCLK_IN1/MP11"
					(effects
						(font
							(size 1.27 1.27)
						)
					)
				)
				(number "61"
					(effects
						(font
							(size 1.27 1.27)
						)
					)
				)
			)
			(pin input line
				(at -22.86 5.08 0)
				(length 2.54)
				(name "SDATA_IN1"
					(effects
						(font
							(size 1.27 1.27)
						)
					)
				)
				(number "62"
					(effects
						(font
							(size 1.27 1.27)
						)
					)
				)
			)
			(pin passive line
				(at 22.86 25.4 180)
				(length 2.54)
				(name "THD_M"
					(effects
						(font
							(size 1.27 1.27)
						)
					)
				)
				(number "63"
					(effects
						(font
							(size 1.27 1.27)
						)
					)
				)
			)
			(pin passive line
				(at 22.86 27.94 180)
				(length 2.54)
				(name "THD_P"
					(effects
						(font
							(size 1.27 1.27)
						)
					)
				)
				(number "64"
					(effects
						(font
							(size 1.27 1.27)
						)
					)
				)
			)
			(pin bidirectional line
				(at -22.86 0 0)
				(length 2.54)
				(name "BCLK_IN2"
					(effects
						(font
							(size 1.27 1.27)
						)
					)
				)
				(number "65"
					(effects
						(font
							(size 1.27 1.27)
						)
					)
				)
			)
			(pin bidirectional line
				(at -22.86 -2.54 0)
				(length 2.54)
				(name "LRCLK_IN2/MP12"
					(effects
						(font
							(size 1.27 1.27)
						)
					)
				)
				(number "66"
					(effects
						(font
							(size 1.27 1.27)
						)
					)
				)
			)
			(pin input line
				(at -22.86 -5.08 0)
				(length 2.54)
				(name "SDATA_IN2"
					(effects
						(font
							(size 1.27 1.27)
						)
					)
				)
				(number "67"
					(effects
						(font
							(size 1.27 1.27)
						)
					)
				)
			)
			(pin bidirectional line
				(at -22.86 -10.16 0)
				(length 2.54)
				(name "BCLK_IN3"
					(effects
						(font
							(size 1.27 1.27)
						)
					)
				)
				(number "68"
					(effects
						(font
							(size 1.27 1.27)
						)
					)
				)
			)
			(pin bidirectional line
				(at -22.86 -12.7 0)
				(length 2.54)
				(name "LRCLK_IN3/MP13"
					(effects
						(font
							(size 1.27 1.27)
						)
					)
				)
				(number "69"
					(effects
						(font
							(size 1.27 1.27)
						)
					)
				)
			)
			(pin power_in line
				(at -2.54 48.26 270)
				(length 2.54)
				(name "AVDD"
					(effects
						(font
							(size 1.27 1.27)
						)
					)
				)
				(number "7"
					(effects
						(font
							(size 1.27 1.27)
						)
					)
				)
			)
			(pin input line
				(at -22.86 -15.24 0)
				(length 2.54)
				(name "SDATA_IN3"
					(effects
						(font
							(size 1.27 1.27)
						)
					)
				)
				(number "70"
					(effects
						(font
							(size 1.27 1.27)
						)
					)
				)
			)
			(pin passive line
				(at 2.54 48.26 270)
				(length 2.54) hide
				(name "DVDD"
					(effects
						(font
							(size 1.27 1.27)
						)
					)
				)
				(number "71"
					(effects
						(font
							(size 1.27 1.27)
						)
					)
				)
			)
			(pin passive line
				(at 2.54 -48.26 90)
				(length 2.54) hide
				(name "DGND"
					(effects
						(font
							(size 1.27 1.27)
						)
					)
				)
				(number "72"
					(effects
						(font
							(size 1.27 1.27)
						)
					)
				)
			)
			(pin power_in line
				(at 0 -48.26 90)
				(length 2.54)
				(name "EP"
					(effects
						(font
							(size 1.27 1.27)
						)
					)
				)
				(number "73"
					(effects
						(font
							(size 1.27 1.27)
						)
					)
				)
			)
			(pin input line
				(at -22.86 -27.94 0)
				(length 2.54)
				(name "AUXADC0"
					(effects
						(font
							(size 1.27 1.27)
						)
					)
				)
				(number "8"
					(effects
						(font
							(size 1.27 1.27)
						)
					)
				)
			)
			(pin input line
				(at -22.86 -30.48 0)
				(length 2.54)
				(name "AUXADC1"
					(effects
						(font
							(size 1.27 1.27)
						)
					)
				)
				(number "9"
					(effects
						(font
							(size 1.27 1.27)
						)
					)
				)
			)
		)
	)
	(symbol "ADAU1701"
		(exclude_from_sim no)
		(in_bom yes)
		(on_board yes)
		(property "Reference" "U"
			(at -12.7 31.75 0)
			(effects
				(font
					(size 1.27 1.27)
				)
			)
		)
		(property "Value" "ADAU1701"
			(at 3.81 31.75 0)
			(effects
				(font
					(size 1.27 1.27)
				)
				(justify left)
			)
		)
		(property "Footprint" "Package_QFP:LQFP-48_7x7mm_P0.5mm"
			(at 0 0 0)
			(effects
				(font
					(size 1.27 1.27)
				)
				(hide yes)
			)
		)
		(property "Datasheet" "https://www.analog.com/media/en/technical-documentation/data-sheets/ADAU1701.pdf"
			(at 0 0 0)
			(effects
				(font
					(size 1.27 1.27)
				)
				(hide yes)
			)
		)
		(property "Description" "SigmaDSP 28-/56-Bit Audio Processor with Two ADCs and Four DACs, 50 MIPS, 1kword Program RAM, 2kword Data RAM, LQFP-48"
			(at 0 0 0)
			(effects
				(font
					(size 1.27 1.27)
				)
				(hide yes)
			)
		)
		(property "ki_keywords" "sigmadsp audio adc dac"
			(at 0 0 0)
			(effects
				(font
					(size 1.27 1.27)
				)
				(hide yes)
			)
		)
		(property "ki_fp_filters" "LQFP*7x7mm*P0.5mm*"
			(at 0 0 0)
			(effects
				(font
					(size 1.27 1.27)
				)
				(hide yes)
			)
		)
		(symbol "ADAU1701_0_1"
			(rectangle
				(start -15.24 30.48)
				(end 15.24 -30.48)
				(stroke
					(width 0.254)
					(type default)
				)
				(fill
					(type background)
				)
			)
		)
		(symbol "ADAU1701_1_1"
			(pin power_in line
				(at -5.08 -33.02 90)
				(length 2.54)
				(name "AGND"
					(effects
						(font
							(size 1.27 1.27)
						)
					)
				)
				(number "1"
					(effects
						(font
							(size 1.27 1.27)
						)
					)
				)
			)
			(pin bidirectional line
				(at 17.78 2.54 180)
				(length 2.54)
				(name "MP1"
					(effects
						(font
							(size 1.27 1.27)
						)
					)
				)
				(number "10"
					(effects
						(font
							(size 1.27 1.27)
						)
					)
				)
			)
			(pin bidirectional line
				(at 17.78 5.08 180)
				(length 2.54)
				(name "MP0"
					(effects
						(font
							(size 1.27 1.27)
						)
					)
				)
				(number "11"
					(effects
						(font
							(size 1.27 1.27)
						)
					)
				)
			)
			(pin power_in line
				(at 2.54 -33.02 90)
				(length 2.54)
				(name "DGND"
					(effects
						(font
							(size 1.27 1.27)
						)
					)
				)
				(number "12"
					(effects
						(font
							(size 1.27 1.27)
						)
					)
				)
			)
			(pin power_in line
				(at 2.54 33.02 270)
				(length 2.54)
				(name "DVDD"
					(effects
						(font
							(size 1.27 1.27)
						)
					)
				)
				(number "13"
					(effects
						(font
							(size 1.27 1.27)
						)
					)
				)
			)
			(pin bidirectional line
				(at 17.78 -12.7 180)
				(length 2.54)
				(name "MP7"
					(effects
						(font
							(size 1.27 1.27)
						)
					)
				)
				(number "14"
					(effects
						(font
							(size 1.27 1.27)
						)
					)
				)
			)
			(pin bidirectional line
				(at 17.78 -10.16 180)
				(length 2.54)
				(name "MP6"
					(effects
						(font
							(size 1.27 1.27)
						)
					)
				)
				(number "15"
					(effects
						(font
							(size 1.27 1.27)
						)
					)
				)
			)
			(pin bidirectional line
				(at 17.78 -20.32 180)
				(length 2.54)
				(name "MP10"
					(effects
						(font
							(size 1.27 1.27)
						)
					)
				)
				(number "16"
					(effects
						(font
							(size 1.27 1.27)
						)
					)
				)
			)
			(pin output line
				(at 17.78 27.94 180)
				(length 2.54)
				(name "VDRIVE"
					(effects
						(font
							(size 1.27 1.27)
						)
					)
				)
				(number "17"
					(effects
						(font
							(size 1.27 1.27)
						)
					)
				)
			)
			(pin power_in line
				(at 0 33.02 270)
				(length 2.54)
				(name "IOVDD"
					(effects
						(font
							(size 1.27 1.27)
						)
					)
				)
				(number "18"
					(effects
						(font
							(size 1.27 1.27)
						)
					)
				)
			)
			(pin bidirectional line
				(at 17.78 -22.86 180)
				(length 2.54)
				(name "MP11"
					(effects
						(font
							(size 1.27 1.27)
						)
					)
				)
				(number "19"
					(effects
						(font
							(size 1.27 1.27)
						)
					)
				)
			)
			(pin input line
				(at -17.78 27.94 0)
				(length 2.54)
				(name "ADC0"
					(effects
						(font
							(size 1.27 1.27)
						)
					)
				)
				(number "2"
					(effects
						(font
							(size 1.27 1.27)
						)
					)
				)
			)
			(pin input line
				(at -17.78 -7.62 0)
				(length 2.54)
				(name "ADDR1/CDATA/WB"
					(effects
						(font
							(size 1.27 1.27)
						)
					)
				)
				(number "20"
					(effects
						(font
							(size 1.27 1.27)
						)
					)
				)
			)
			(pin bidirectional line
				(at -17.78 -10.16 0)
				(length 2.54)
				(name "CLATCH/WP"
					(effects
						(font
							(size 1.27 1.27)
						)
					)
				)
				(number "21"
					(effects
						(font
							(size 1.27 1.27)
						)
					)
				)
			)
			(pin bidirectional line
				(at -17.78 -12.7 0)
				(length 2.54)
				(name "SDA/COUT"
					(effects
						(font
							(size 1.27 1.27)
						)
					)
				)
				(number "22"
					(effects
						(font
							(size 1.27 1.27)
						)
					)
				)
			)
			(pin bidirectional line
				(at -17.78 -15.24 0)
				(length 2.54)
				(name "SCL/CCLK"
					(effects
						(font
							(size 1.27 1.27)
						)
					)
				)
				(number "23"
					(effects
						(font
							(size 1.27 1.27)
						)
					)
				)
			)
			(pin passive line
				(at 2.54 33.02 270)
				(length 2.54) hide
				(name "DVDD"
					(effects
						(font
							(size 1.27 1.27)
						)
					)
				)
				(number "24"
					(effects
						(font
							(size 1.27 1.27)
						)
					)
				)
			)
			(pin passive line
				(at 2.54 -33.02 90)
				(length 2.54) hide
				(name "DGND"
					(effects
						(font
							(size 1.27 1.27)
						)
					)
				)
				(number "25"
					(effects
						(font
							(size 1.27 1.27)
						)
					)
				)
			)
			(pin bidirectional line
				(at 17.78 -17.78 180)
				(length 2.54)
				(name "MP9"
					(effects
						(font
							(size 1.27 1.27)
						)
					)
				)
				(number "26"
					(effects
						(font
							(size 1.27 1.27)
						)
					)
				)
			)
			(pin bidirectional line
				(at 17.78 -15.24 180)
				(length 2.54)
				(name "MP8"
					(effects
						(font
							(size 1.27 1.27)
						)
					)
				)
				(number "27"
					(effects
						(font
							(size 1.27 1.27)
						)
					)
				)
			)
			(pin bidirectional line
				(at 17.78 -2.54 180)
				(length 2.54)
				(name "MP3"
					(effects
						(font
							(size 1.27 1.27)
						)
					)
				)
				(number "28"
					(effects
						(font
							(size 1.27 1.27)
						)
					)
				)
			)
			(pin bidirectional line
				(at 17.78 0 180)
				(length 2.54)
				(name "MP2"
					(effects
						(font
							(size 1.27 1.27)
						)
					)
				)
				(number "29"
					(effects
						(font
							(size 1.27 1.27)
						)
					)
				)
			)
			(pin passive line
				(at -17.78 20.32 0)
				(length 2.54)
				(name "ADC_RES"
					(effects
						(font
							(size 1.27 1.27)
						)
					)
				)
				(number "3"
					(effects
						(font
							(size 1.27 1.27)
						)
					)
				)
			)
			(pin passive line
				(at 0 -33.02 90)
				(length 2.54)
				(name "RSVD"
					(effects
						(font
							(size 1.27 1.27)
						)
					)
				)
				(number "30"
					(effects
						(font
							(size 1.27 1.27)
						)
					)
				)
			)
			(pin passive line
				(at -17.78 15.24 0)
				(length 2.54)
				(name "OSCO"
					(effects
						(font
							(size 1.27 1.27)
						)
					)
				)
				(number "31"
					(effects
						(font
							(size 1.27 1.27)
						)
					)
				)
			)
			(pin passive line
				(at -17.78 12.7 0)
				(length 2.54)
				(name "MCLKI"
					(effects
						(font
							(size 1.27 1.27)
						)
					)
				)
				(number "32"
					(effects
						(font
							(size 1.27 1.27)
						)
					)
				)
			)
			(pin power_in line
				(at -2.54 -33.02 90)
				(length 2.54)
				(name "PGND"
					(effects
						(font
							(size 1.27 1.27)
						)
					)
				)
				(number "33"
					(effects
						(font
							(size 1.27 1.27)
						)
					)
				)
			)
			(pin power_in line
				(at -2.54 33.02 270)
				(length 2.54)
				(name "PVDD"
					(effects
						(font
							(size 1.27 1.27)
						)
					)
				)
				(number "34"
					(effects
						(font
							(size 1.27 1.27)
						)
					)
				)
			)
			(pin passive line
				(at -17.78 7.62 0)
				(length 2.54)
				(name "PLL_LF"
					(effects
						(font
							(size 1.27 1.27)
						)
					)
				)
				(number "35"
					(effects
						(font
							(size 1.27 1.27)
						)
					)
				)
			)
			(pin power_in line
				(at -5.08 33.02 270)
				(length 2.54)
				(name "AVDD"
					(effects
						(font
							(size 1.27 1.27)
						)
					)
				)
				(number "36"
					(effects
						(font
							(size 1.27 1.27)
						)
					)
				)
			)
			(pin passive line
				(at -5.08 -33.02 90)
				(length 2.54) hide
				(name "AGND"
					(effects
						(font
							(size 1.27 1.27)
						)
					)
				)
				(number "37"
					(effects
						(font
							(size 1.27 1.27)
						)
					)
				)
			)
			(pin input line
				(at -17.78 2.54 0)
				(length 2.54)
				(name "PLL_MODE0"
					(effects
						(font
							(size 1.27 1.27)
						)
					)
				)
				(number "38"
					(effects
						(font
							(size 1.27 1.27)
						)
					)
				)
			)
			(pin input line
				(at -17.78 0 0)
				(length 2.54)
				(name "PLL_MODE1"
					(effects
						(font
							(size 1.27 1.27)
						)
					)
				)
				(number "39"
					(effects
						(font
							(size 1.27 1.27)
						)
					)
				)
			)
			(pin input line
				(at -17.78 25.4 0)
				(length 2.54)
				(name "ADC1"
					(effects
						(font
							(size 1.27 1.27)
						)
					)
				)
				(number "4"
					(effects
						(font
							(size 1.27 1.27)
						)
					)
				)
			)
			(pin output line
				(at 17.78 10.16 180)
				(length 2.54)
				(name "CM"
					(effects
						(font
							(size 1.27 1.27)
						)
					)
				)
				(number "40"
					(effects
						(font
							(size 1.27 1.27)
						)
					)
				)
			)
			(pin output line
				(at 17.78 -27.94 180)
				(length 2.54)
				(name "FILTD"
					(effects
						(font
							(size 1.27 1.27)
						)
					)
				)
				(number "41"
					(effects
						(font
							(size 1.27 1.27)
						)
					)
				)
			)
			(pin passive line
				(at -5.08 -33.02 90)
				(length 2.54) hide
				(name "AGND"
					(effects
						(font
							(size 1.27 1.27)
						)
					)
				)
				(number "42"
					(effects
						(font
							(size 1.27 1.27)
						)
					)
				)
			)
			(pin output line
				(at 17.78 15.24 180)
				(length 2.54)
				(name "VOUT3"
					(effects
						(font
							(size 1.27 1.27)
						)
					)
				)
				(number "43"
					(effects
						(font
							(size 1.27 1.27)
						)
					)
				)
			)
			(pin output line
				(at 17.78 17.78 180)
				(length 2.54)
				(name "VOUT2"
					(effects
						(font
							(size 1.27 1.27)
						)
					)
				)
				(number "44"
					(effects
						(font
							(size 1.27 1.27)
						)
					)
				)
			)
			(pin output line
				(at 17.78 20.32 180)
				(length 2.54)
				(name "VOUT1"
					(effects
						(font
							(size 1.27 1.27)
						)
					)
				)
				(number "45"
					(effects
						(font
							(size 1.27 1.27)
						)
					)
				)
			)
			(pin output line
				(at 17.78 22.86 180)
				(length 2.54)
				(name "VOUT0"
					(effects
						(font
							(size 1.27 1.27)
						)
					)
				)
				(number "46"
					(effects
						(font
							(size 1.27 1.27)
						)
					)
				)
			)
			(pin output line
				(at -17.78 -27.94 0)
				(length 2.54)
				(name "FILTA"
					(effects
						(font
							(size 1.27 1.27)
						)
					)
				)
				(number "47"
					(effects
						(font
							(size 1.27 1.27)
						)
					)
				)
			)
			(pin passive line
				(at -5.08 33.02 270)
				(length 2.54) hide
				(name "AVDD"
					(effects
						(font
							(size 1.27 1.27)
						)
					)
				)
				(number "48"
					(effects
						(font
							(size 1.27 1.27)
						)
					)
				)
			)
			(pin input line
				(at -17.78 -20.32 0)
				(length 2.54)
				(name "~{RESET}"
					(effects
						(font
							(size 1.27 1.27)
						)
					)
				)
				(number "5"
					(effects
						(font
							(size 1.27 1.27)
						)
					)
				)
			)
			(pin input line
				(at -17.78 -22.86 0)
				(length 2.54)
				(name "SELFBOOT"
					(effects
						(font
							(size 1.27 1.27)
						)
					)
				)
				(number "6"
					(effects
						(font
							(size 1.27 1.27)
						)
					)
				)
			)
			(pin input line
				(at -17.78 -5.08 0)
				(length 2.54)
				(name "ADDR0"
					(effects
						(font
							(size 1.27 1.27)
						)
					)
				)
				(number "7"
					(effects
						(font
							(size 1.27 1.27)
						)
					)
				)
			)
			(pin bidirectional line
				(at 17.78 -5.08 180)
				(length 2.54)
				(name "MP4"
					(effects
						(font
							(size 1.27 1.27)
						)
					)
				)
				(number "8"
					(effects
						(font
							(size 1.27 1.27)
						)
					)
				)
			)
			(pin bidirectional line
				(at 17.78 -7.62 180)
				(length 2.54)
				(name "MP5"
					(effects
						(font
							(size 1.27 1.27)
						)
					)
				)
				(number "9"
					(effects
						(font
							(size 1.27 1.27)
						)
					)
				)
			)
		)
	)
	(symbol "ADAU1451"
		(extends "ADAU1450")
		(property "Reference" "U"
			(at -17.78 46.99 0)
			(effects
				(font
					(size 1.27 1.27)
				)
			)
		)
		(property "Value" "ADAU1451"
			(at 15.24 46.99 0)
			(effects
				(font
					(size 1.27 1.27)
				)
			)
		)
		(property "Footprint" "Package_CSP:LFCSP-72-1EP_10x10mm_P0.5mm_EP5.3x5.3mm"
			(at 0 0 0)
			(effects
				(font
					(size 1.27 1.27)
				)
				(hide yes)
			)
		)
		(property "Datasheet" "https://www.analog.com/media/en/technical-documentation/data-sheets/ADAU1452_1451_1450.pdf"
			(at 0 0 0)
			(effects
				(font
					(size 1.27 1.27)
				)
				(hide yes)
			)
		)
		(property "Description" "SigmaDSP SigmaDSP Digital Audio Processor, 294.912 MHz, 40kword Data RAM, I2C/SPI, S/PDIF I/O, 16-Channel ASRC, LFCSP-72"
			(at 0 0 0)
			(effects
				(font
					(size 1.27 1.27)
				)
				(hide yes)
			)
		)
		(property "ki_keywords" "sigmadsp audio"
			(at 0 0 0)
			(effects
				(font
					(size 1.27 1.27)
				)
				(hide yes)
			)
		)
		(property "ki_fp_filters" "LFCSP*1EP*10x10mm*P0.5mm*"
			(at 0 0 0)
			(effects
				(font
					(size 1.27 1.27)
				)
				(hide yes)
			)
		)
	)
	(symbol "ADAU1452"
		(extends "ADAU1450")
		(property "Reference" "U"
			(at -17.78 46.99 0)
			(effects
				(font
					(size 1.27 1.27)
				)
			)
		)
		(property "Value" "ADAU1452"
			(at 15.24 46.99 0)
			(effects
				(font
					(size 1.27 1.27)
				)
			)
		)
		(property "Footprint" "Package_CSP:LFCSP-72-1EP_10x10mm_P0.5mm_EP5.3x5.3mm"
			(at 0 0 0)
			(effects
				(font
					(size 1.27 1.27)
				)
				(hide yes)
			)
		)
		(property "Datasheet" "https://www.analog.com/media/en/technical-documentation/data-sheets/ADAU1452_1451_1450.pdf"
			(at 0 0 0)
			(effects
				(font
					(size 1.27 1.27)
				)
				(hide yes)
			)
		)
		(property "Description" "SigmaDSP SigmaDSP Digital Audio Processor, 294.912 MHz, 40kword Data RAM, I2C/SPI, S/PDIF I/O, 16-Channel ASRC, LFCSP-72"
			(at 0 0 0)
			(effects
				(font
					(size 1.27 1.27)
				)
				(hide yes)
			)
		)
		(property "ki_keywords" "sigmadsp audio"
			(at 0 0 0)
			(effects
				(font
					(size 1.27 1.27)
				)
				(hide yes)
			)
		)
		(property "ki_fp_filters" "LFCSP*1EP*10x10mm*P0.5mm*"
			(at 0 0 0)
			(effects
				(font
					(size 1.27 1.27)
				)
				(hide yes)
			)
		)
	)
	(symbol "ADAU1702"
		(extends "ADAU1701")
		(property "Reference" "U"
			(at -12.7 31.75 0)
			(effects
				(font
					(size 1.27 1.27)
				)
			)
		)
		(property "Value" "ADAU1702"
			(at 3.81 31.75 0)
			(effects
				(font
					(size 1.27 1.27)
				)
				(justify left)
			)
		)
		(property "Footprint" "Package_QFP:LQFP-48_7x7mm_P0.5mm"
			(at 0 0 0)
			(effects
				(font
					(size 1.27 1.27)
				)
				(hide yes)
			)
		)
		(property "Datasheet" "https://www.analog.com/media/en/technical-documentation/data-sheets/ADAU1702.pdf"
			(at 0 0 0)
			(effects
				(font
					(size 1.27 1.27)
				)
				(hide yes)
			)
		)
		(property "Description" "SigmaDSP 28-/56-Bit Audio Processor with Two ADCs and Four DACs, 25 MIPS, 512kword Program RAM, 512kword Data RAM, LQFP-48"
			(at 0 0 0)
			(effects
				(font
					(size 1.27 1.27)
				)
				(hide yes)
			)
		)
		(property "ki_keywords" "sigmadsp audio adc dac"
			(at 0 0 0)
			(effects
				(font
					(size 1.27 1.27)
				)
				(hide yes)
			)
		)
		(property "ki_fp_filters" "LQFP*7x7mm*P0.5mm*"
			(at 0 0 0)
			(effects
				(font
					(size 1.27 1.27)
				)
				(hide yes)
			)
		)
	)
)