(kicad_symbol_lib
	(version 20231120)
	(generator "kicad_symbol_editor")
	(generator_version "8.0")
	(symbol "MAC7101"
		(pin_names
			(offset 1.016)
		)
		(exclude_from_sim no)
		(in_bom yes)
		(on_board yes)
		(property "Reference" "U"
			(at 1.27 -44.45 0)
			(effects
				(font
					(size 1.27 1.27)
				)
			)
		)
		(property "Value" "MAC7101"
			(at 1.27 16.51 0)
			(effects
				(font
					(size 1.27 1.27)
				)
			)
		)
		(property "Footprint" "Package_QFP:LQFP-144_20x20mm_P0.5mm"
			(at 1.27 -1.27 0)
			(effects
				(font
					(size 1.27 1.27)
				)
				(hide yes)
			)
		)
		(property "Datasheet" "https://www.nxp.com/docs/en/data-sheet/MAC7100EC.pdf"
			(at 1.27 -1.27 0)
			(effects
				(font
					(size 1.27 1.27)
				)
				(hide yes)
			)
		)
		(property "Description" "Automotive ARM7TDMI-S-based Microcontroller, LQFP-144"
			(at 0 0 0)
			(effects
				(font
					(size 1.27 1.27)
				)
				(hide yes)
			)
		)
		(property "ki_keywords" "ARM7TDMI-S MCU"
			(at 0 0 0)
			(effects
				(font
					(size 1.27 1.27)
				)
				(hide yes)
			)
		)
		(property "ki_fp_filters" "LQFP*20x20mm*P0.5mm*"
			(at 0 0 0)
			(effects
				(font
					(size 1.27 1.27)
				)
				(hide yes)
			)
		)
		(symbol "MAC7101_0_1"
			(rectangle
				(start 30.48 -109.22)
				(end -27.94 88.9)
				(stroke
					(width 0.254)
					(type default)
				)
				(fill
					(type background)
				)
			)
		)
		(symbol "MAC7101_1_1"
			(pin bidirectional line
				(at 38.1 -25.4 180)
				(length 7.62)
				(name "PG4/CANTXD_A"
					(effects
						(font
							(size 1.27 1.27)
						)
					)
				)
				(number "1"
					(effects
						(font
							(size 1.27 1.27)
						)
					)
				)
			)
			(pin bidirectional line
				(at -35.56 25.4 0)
				(length 7.62)
				(name "PC1"
					(effects
						(font
							(size 1.27 1.27)
						)
					)
				)
				(number "10"
					(effects
						(font
							(size 1.27 1.27)
						)
					)
				)
			)
			(pin bidirectional line
				(at 38.1 40.64 180)
				(length 7.62)
				(name "PH6/AN6_B"
					(effects
						(font
							(size 1.27 1.27)
						)
					)
				)
				(number "100"
					(effects
						(font
							(size 1.27 1.27)
						)
					)
				)
			)
			(pin bidirectional line
				(at 38.1 38.1 180)
				(length 7.62)
				(name "RDY'/PE6/AN6_A"
					(effects
						(font
							(size 1.27 1.27)
						)
					)
				)
				(number "101"
					(effects
						(font
							(size 1.27 1.27)
						)
					)
				)
			)
			(pin bidirectional line
				(at 38.1 35.56 180)
				(length 7.62)
				(name "PH7/AN7_B"
					(effects
						(font
							(size 1.27 1.27)
						)
					)
				)
				(number "102"
					(effects
						(font
							(size 1.27 1.27)
						)
					)
				)
			)
			(pin bidirectional line
				(at 38.1 33.02 180)
				(length 7.62)
				(name "PE7/AN7_A"
					(effects
						(font
							(size 1.27 1.27)
						)
					)
				)
				(number "103"
					(effects
						(font
							(size 1.27 1.27)
						)
					)
				)
			)
			(pin bidirectional line
				(at 38.1 30.48 180)
				(length 7.62)
				(name "PH8/AN8_B"
					(effects
						(font
							(size 1.27 1.27)
						)
					)
				)
				(number "104"
					(effects
						(font
							(size 1.27 1.27)
						)
					)
				)
			)
			(pin bidirectional line
				(at 38.1 27.94 180)
				(length 7.62)
				(name "PE8/AN8_A"
					(effects
						(font
							(size 1.27 1.27)
						)
					)
				)
				(number "105"
					(effects
						(font
							(size 1.27 1.27)
						)
					)
				)
			)
			(pin bidirectional line
				(at 38.1 25.4 180)
				(length 7.62)
				(name "PH9/AN9_B"
					(effects
						(font
							(size 1.27 1.27)
						)
					)
				)
				(number "106"
					(effects
						(font
							(size 1.27 1.27)
						)
					)
				)
			)
			(pin bidirectional line
				(at 38.1 22.86 180)
				(length 7.62)
				(name "PE9/AN9_A"
					(effects
						(font
							(size 1.27 1.27)
						)
					)
				)
				(number "107"
					(effects
						(font
							(size 1.27 1.27)
						)
					)
				)
			)
			(pin bidirectional line
				(at 38.1 20.32 180)
				(length 7.62)
				(name "PH10/AN10_B"
					(effects
						(font
							(size 1.27 1.27)
						)
					)
				)
				(number "108"
					(effects
						(font
							(size 1.27 1.27)
						)
					)
				)
			)
			(pin power_in line
				(at 22.86 96.52 270)
				(length 7.62)
				(name "VddA"
					(effects
						(font
							(size 1.27 1.27)
						)
					)
				)
				(number "109"
					(effects
						(font
							(size 1.27 1.27)
						)
					)
				)
			)
			(pin bidirectional line
				(at -35.56 22.86 0)
				(length 7.62)
				(name "PC2"
					(effects
						(font
							(size 1.27 1.27)
						)
					)
				)
				(number "11"
					(effects
						(font
							(size 1.27 1.27)
						)
					)
				)
			)
			(pin passive line
				(at -35.56 -106.68 0)
				(length 7.62)
				(name "VRL"
					(effects
						(font
							(size 1.27 1.27)
						)
					)
				)
				(number "110"
					(effects
						(font
							(size 1.27 1.27)
						)
					)
				)
			)
			(pin passive line
				(at -35.56 -104.14 0)
				(length 7.62)
				(name "VRH"
					(effects
						(font
							(size 1.27 1.27)
						)
					)
				)
				(number "111"
					(effects
						(font
							(size 1.27 1.27)
						)
					)
				)
			)
			(pin power_in line
				(at 15.24 -116.84 90)
				(length 7.62)
				(name "VssA"
					(effects
						(font
							(size 1.27 1.27)
						)
					)
				)
				(number "112"
					(effects
						(font
							(size 1.27 1.27)
						)
					)
				)
			)
			(pin bidirectional line
				(at 38.1 17.78 180)
				(length 7.62)
				(name "PE10/AN10_A"
					(effects
						(font
							(size 1.27 1.27)
						)
					)
				)
				(number "113"
					(effects
						(font
							(size 1.27 1.27)
						)
					)
				)
			)
			(pin bidirectional line
				(at 38.1 15.24 180)
				(length 7.62)
				(name "PH11/AN11_B"
					(effects
						(font
							(size 1.27 1.27)
						)
					)
				)
				(number "114"
					(effects
						(font
							(size 1.27 1.27)
						)
					)
				)
			)
			(pin bidirectional line
				(at 38.1 12.7 180)
				(length 7.62)
				(name "PE11/AN11_A"
					(effects
						(font
							(size 1.27 1.27)
						)
					)
				)
				(number "115"
					(effects
						(font
							(size 1.27 1.27)
						)
					)
				)
			)
			(pin bidirectional line
				(at 38.1 10.16 180)
				(length 7.62)
				(name "PH12/AN12_B"
					(effects
						(font
							(size 1.27 1.27)
						)
					)
				)
				(number "116"
					(effects
						(font
							(size 1.27 1.27)
						)
					)
				)
			)
			(pin bidirectional line
				(at 38.1 7.62 180)
				(length 7.62)
				(name "PE12/AN12_A"
					(effects
						(font
							(size 1.27 1.27)
						)
					)
				)
				(number "117"
					(effects
						(font
							(size 1.27 1.27)
						)
					)
				)
			)
			(pin bidirectional line
				(at 38.1 5.08 180)
				(length 7.62)
				(name "PH13/AN13_B"
					(effects
						(font
							(size 1.27 1.27)
						)
					)
				)
				(number "118"
					(effects
						(font
							(size 1.27 1.27)
						)
					)
				)
			)
			(pin bidirectional line
				(at 38.1 2.54 180)
				(length 7.62)
				(name "PE13/AN13_A"
					(effects
						(font
							(size 1.27 1.27)
						)
					)
				)
				(number "119"
					(effects
						(font
							(size 1.27 1.27)
						)
					)
				)
			)
			(pin bidirectional line
				(at -35.56 20.32 0)
				(length 7.62)
				(name "PC3"
					(effects
						(font
							(size 1.27 1.27)
						)
					)
				)
				(number "12"
					(effects
						(font
							(size 1.27 1.27)
						)
					)
				)
			)
			(pin bidirectional line
				(at 38.1 0 180)
				(length 7.62)
				(name "PH14/AN14_B"
					(effects
						(font
							(size 1.27 1.27)
						)
					)
				)
				(number "120"
					(effects
						(font
							(size 1.27 1.27)
						)
					)
				)
			)
			(pin bidirectional line
				(at 38.1 -2.54 180)
				(length 7.62)
				(name "PE14/AN14_A"
					(effects
						(font
							(size 1.27 1.27)
						)
					)
				)
				(number "121"
					(effects
						(font
							(size 1.27 1.27)
						)
					)
				)
			)
			(pin bidirectional line
				(at 38.1 -5.08 180)
				(length 7.62)
				(name "PH15/AN15_B"
					(effects
						(font
							(size 1.27 1.27)
						)
					)
				)
				(number "122"
					(effects
						(font
							(size 1.27 1.27)
						)
					)
				)
			)
			(pin bidirectional line
				(at 38.1 -7.62 180)
				(length 7.62)
				(name "PE15/AN15_A"
					(effects
						(font
							(size 1.27 1.27)
						)
					)
				)
				(number "123"
					(effects
						(font
							(size 1.27 1.27)
						)
					)
				)
			)
			(pin power_in line
				(at 15.24 96.52 270)
				(length 7.62)
				(name "VddX"
					(effects
						(font
							(size 1.27 1.27)
						)
					)
				)
				(number "124"
					(effects
						(font
							(size 1.27 1.27)
						)
					)
				)
			)
			(pin power_in line
				(at -5.08 -116.84 90)
				(length 7.62)
				(name "VssX"
					(effects
						(font
							(size 1.27 1.27)
						)
					)
				)
				(number "125"
					(effects
						(font
							(size 1.27 1.27)
						)
					)
				)
			)
			(pin power_in line
				(at 0 -116.84 90)
				(length 7.62)
				(name "Vss2.5"
					(effects
						(font
							(size 1.27 1.27)
						)
					)
				)
				(number "126"
					(effects
						(font
							(size 1.27 1.27)
						)
					)
				)
			)
			(pin power_in line
				(at -2.54 96.52 270)
				(length 7.62)
				(name "Vdd2.5"
					(effects
						(font
							(size 1.27 1.27)
						)
					)
				)
				(number "127"
					(effects
						(font
							(size 1.27 1.27)
						)
					)
				)
			)
			(pin input line
				(at 38.1 76.2 180)
				(length 7.62)
				(name "TDI"
					(effects
						(font
							(size 1.27 1.27)
						)
					)
				)
				(number "128"
					(effects
						(font
							(size 1.27 1.27)
						)
					)
				)
			)
			(pin output line
				(at 38.1 78.74 180)
				(length 7.62)
				(name "TDO"
					(effects
						(font
							(size 1.27 1.27)
						)
					)
				)
				(number "129"
					(effects
						(font
							(size 1.27 1.27)
						)
					)
				)
			)
			(pin power_in line
				(at -15.24 -116.84 90)
				(length 7.62)
				(name "VssX"
					(effects
						(font
							(size 1.27 1.27)
						)
					)
				)
				(number "13"
					(effects
						(font
							(size 1.27 1.27)
						)
					)
				)
			)
			(pin input line
				(at 38.1 81.28 180)
				(length 7.62)
				(name "TCK"
					(effects
						(font
							(size 1.27 1.27)
						)
					)
				)
				(number "130"
					(effects
						(font
							(size 1.27 1.27)
						)
					)
				)
			)
			(pin input line
				(at 38.1 83.82 180)
				(length 7.62)
				(name "TMS"
					(effects
						(font
							(size 1.27 1.27)
						)
					)
				)
				(number "131"
					(effects
						(font
							(size 1.27 1.27)
						)
					)
				)
			)
			(pin bidirectional line
				(at -35.56 43.18 0)
				(length 7.62)
				(name "PA6/RDY"
					(effects
						(font
							(size 1.27 1.27)
						)
					)
				)
				(number "132"
					(effects
						(font
							(size 1.27 1.27)
						)
					)
				)
			)
			(pin bidirectional line
				(at -35.56 45.72 0)
				(length 7.62)
				(name "PA5/MSEO"
					(effects
						(font
							(size 1.27 1.27)
						)
					)
				)
				(number "133"
					(effects
						(font
							(size 1.27 1.27)
						)
					)
				)
			)
			(pin bidirectional line
				(at -35.56 48.26 0)
				(length 7.62)
				(name "PA4/MDO1"
					(effects
						(font
							(size 1.27 1.27)
						)
					)
				)
				(number "134"
					(effects
						(font
							(size 1.27 1.27)
						)
					)
				)
			)
			(pin bidirectional line
				(at -35.56 50.8 0)
				(length 7.62)
				(name "PA3/MDO0"
					(effects
						(font
							(size 1.27 1.27)
						)
					)
				)
				(number "135"
					(effects
						(font
							(size 1.27 1.27)
						)
					)
				)
			)
			(pin bidirectional line
				(at -35.56 53.34 0)
				(length 7.62)
				(name "PA2/EVTI"
					(effects
						(font
							(size 1.27 1.27)
						)
					)
				)
				(number "136"
					(effects
						(font
							(size 1.27 1.27)
						)
					)
				)
			)
			(pin bidirectional line
				(at -35.56 55.88 0)
				(length 7.62)
				(name "PA1/EVTO"
					(effects
						(font
							(size 1.27 1.27)
						)
					)
				)
				(number "137"
					(effects
						(font
							(size 1.27 1.27)
						)
					)
				)
			)
			(pin bidirectional line
				(at -35.56 58.42 0)
				(length 7.62)
				(name "PA0/MCKO"
					(effects
						(font
							(size 1.27 1.27)
						)
					)
				)
				(number "138"
					(effects
						(font
							(size 1.27 1.27)
						)
					)
				)
			)
			(pin bidirectional line
				(at 38.1 -50.8 180)
				(length 7.62)
				(name "PG14/RXD_C"
					(effects
						(font
							(size 1.27 1.27)
						)
					)
				)
				(number "139"
					(effects
						(font
							(size 1.27 1.27)
						)
					)
				)
			)
			(pin power_in line
				(at 5.08 96.52 270)
				(length 7.62)
				(name "VddX"
					(effects
						(font
							(size 1.27 1.27)
						)
					)
				)
				(number "14"
					(effects
						(font
							(size 1.27 1.27)
						)
					)
				)
			)
			(pin bidirectional line
				(at 38.1 -53.34 180)
				(length 7.62)
				(name "PG15/TXD_C"
					(effects
						(font
							(size 1.27 1.27)
						)
					)
				)
				(number "140"
					(effects
						(font
							(size 1.27 1.27)
						)
					)
				)
			)
			(pin bidirectional line
				(at 38.1 -15.24 180)
				(length 7.62)
				(name "PG0/RXD_B"
					(effects
						(font
							(size 1.27 1.27)
						)
					)
				)
				(number "141"
					(effects
						(font
							(size 1.27 1.27)
						)
					)
				)
			)
			(pin bidirectional line
				(at 38.1 -17.78 180)
				(length 7.62)
				(name "PG1/TXD_B"
					(effects
						(font
							(size 1.27 1.27)
						)
					)
				)
				(number "142"
					(effects
						(font
							(size 1.27 1.27)
						)
					)
				)
			)
			(pin bidirectional line
				(at 38.1 -20.32 180)
				(length 7.62)
				(name "PG2/RXD_A"
					(effects
						(font
							(size 1.27 1.27)
						)
					)
				)
				(number "143"
					(effects
						(font
							(size 1.27 1.27)
						)
					)
				)
			)
			(pin bidirectional line
				(at 38.1 -22.86 180)
				(length 7.62)
				(name "PG3/TXD_A"
					(effects
						(font
							(size 1.27 1.27)
						)
					)
				)
				(number "144"
					(effects
						(font
							(size 1.27 1.27)
						)
					)
				)
			)
			(pin bidirectional line
				(at 38.1 -58.42 180)
				(length 7.62)
				(name "PB0/SDA"
					(effects
						(font
							(size 1.27 1.27)
						)
					)
				)
				(number "15"
					(effects
						(font
							(size 1.27 1.27)
						)
					)
				)
			)
			(pin bidirectional line
				(at 38.1 -60.96 180)
				(length 7.62)
				(name "PB1/SCL"
					(effects
						(font
							(size 1.27 1.27)
						)
					)
				)
				(number "16"
					(effects
						(font
							(size 1.27 1.27)
						)
					)
				)
			)
			(pin bidirectional line
				(at 38.1 -63.5 180)
				(length 7.62)
				(name "PB2/SIN_A"
					(effects
						(font
							(size 1.27 1.27)
						)
					)
				)
				(number "17"
					(effects
						(font
							(size 1.27 1.27)
						)
					)
				)
			)
			(pin bidirectional line
				(at 38.1 -66.04 180)
				(length 7.62)
				(name "PB3/SOUT_A"
					(effects
						(font
							(size 1.27 1.27)
						)
					)
				)
				(number "18"
					(effects
						(font
							(size 1.27 1.27)
						)
					)
				)
			)
			(pin bidirectional line
				(at 38.1 -68.58 180)
				(length 7.62)
				(name "PB4/SCK_A"
					(effects
						(font
							(size 1.27 1.27)
						)
					)
				)
				(number "19"
					(effects
						(font
							(size 1.27 1.27)
						)
					)
				)
			)
			(pin bidirectional line
				(at 38.1 -27.94 180)
				(length 7.62)
				(name "PG5/CANRXD_A"
					(effects
						(font
							(size 1.27 1.27)
						)
					)
				)
				(number "2"
					(effects
						(font
							(size 1.27 1.27)
						)
					)
				)
			)
			(pin bidirectional line
				(at 38.1 -71.12 180)
				(length 7.62)
				(name "PB5/PCS0_A/SS_A"
					(effects
						(font
							(size 1.27 1.27)
						)
					)
				)
				(number "20"
					(effects
						(font
							(size 1.27 1.27)
						)
					)
				)
			)
			(pin bidirectional line
				(at 38.1 -73.66 180)
				(length 7.62)
				(name "PB6/PCS1_A"
					(effects
						(font
							(size 1.27 1.27)
						)
					)
				)
				(number "21"
					(effects
						(font
							(size 1.27 1.27)
						)
					)
				)
			)
			(pin bidirectional line
				(at 38.1 -76.2 180)
				(length 7.62)
				(name "PB7"
					(effects
						(font
							(size 1.27 1.27)
						)
					)
				)
				(number "22"
					(effects
						(font
							(size 1.27 1.27)
						)
					)
				)
			)
			(pin bidirectional line
				(at 38.1 -78.74 180)
				(length 7.62)
				(name "PB8/PCS5_A/PCSS_A"
					(effects
						(font
							(size 1.27 1.27)
						)
					)
				)
				(number "23"
					(effects
						(font
							(size 1.27 1.27)
						)
					)
				)
			)
			(pin bidirectional line
				(at -35.56 -68.58 0)
				(length 7.62)
				(name "PF15/eMIOS15"
					(effects
						(font
							(size 1.27 1.27)
						)
					)
				)
				(number "24"
					(effects
						(font
							(size 1.27 1.27)
						)
					)
				)
			)
			(pin bidirectional line
				(at -35.56 -66.04 0)
				(length 7.62)
				(name "PF14/eMIOS14"
					(effects
						(font
							(size 1.27 1.27)
						)
					)
				)
				(number "25"
					(effects
						(font
							(size 1.27 1.27)
						)
					)
				)
			)
			(pin bidirectional line
				(at -35.56 -63.5 0)
				(length 7.62)
				(name "PF13/eMIOS13"
					(effects
						(font
							(size 1.27 1.27)
						)
					)
				)
				(number "26"
					(effects
						(font
							(size 1.27 1.27)
						)
					)
				)
			)
			(pin bidirectional line
				(at -35.56 -60.96 0)
				(length 7.62)
				(name "PF12/eMIOS12"
					(effects
						(font
							(size 1.27 1.27)
						)
					)
				)
				(number "27"
					(effects
						(font
							(size 1.27 1.27)
						)
					)
				)
			)
			(pin bidirectional line
				(at -35.56 17.78 0)
				(length 7.62)
				(name "PC4"
					(effects
						(font
							(size 1.27 1.27)
						)
					)
				)
				(number "28"
					(effects
						(font
							(size 1.27 1.27)
						)
					)
				)
			)
			(pin bidirectional line
				(at -35.56 15.24 0)
				(length 7.62)
				(name "PC5"
					(effects
						(font
							(size 1.27 1.27)
						)
					)
				)
				(number "29"
					(effects
						(font
							(size 1.27 1.27)
						)
					)
				)
			)
			(pin bidirectional line
				(at 38.1 -35.56 180)
				(length 7.62)
				(name "PG8/CANTXD_C"
					(effects
						(font
							(size 1.27 1.27)
						)
					)
				)
				(number "3"
					(effects
						(font
							(size 1.27 1.27)
						)
					)
				)
			)
			(pin bidirectional line
				(at -35.56 12.7 0)
				(length 7.62)
				(name "PC6"
					(effects
						(font
							(size 1.27 1.27)
						)
					)
				)
				(number "30"
					(effects
						(font
							(size 1.27 1.27)
						)
					)
				)
			)
			(pin bidirectional line
				(at -35.56 10.16 0)
				(length 7.62)
				(name "PC7"
					(effects
						(font
							(size 1.27 1.27)
						)
					)
				)
				(number "31"
					(effects
						(font
							(size 1.27 1.27)
						)
					)
				)
			)
			(pin bidirectional line
				(at -35.56 -58.42 0)
				(length 7.62)
				(name "PF11/eMIOS11"
					(effects
						(font
							(size 1.27 1.27)
						)
					)
				)
				(number "32"
					(effects
						(font
							(size 1.27 1.27)
						)
					)
				)
			)
			(pin bidirectional line
				(at -35.56 -55.88 0)
				(length 7.62)
				(name "PF10/eMIOS10"
					(effects
						(font
							(size 1.27 1.27)
						)
					)
				)
				(number "33"
					(effects
						(font
							(size 1.27 1.27)
						)
					)
				)
			)
			(pin bidirectional line
				(at -35.56 -53.34 0)
				(length 7.62)
				(name "PF9/eMIOS9"
					(effects
						(font
							(size 1.27 1.27)
						)
					)
				)
				(number "34"
					(effects
						(font
							(size 1.27 1.27)
						)
					)
				)
			)
			(pin bidirectional line
				(at -35.56 -50.8 0)
				(length 7.62)
				(name "PF8/eMIOS8"
					(effects
						(font
							(size 1.27 1.27)
						)
					)
				)
				(number "35"
					(effects
						(font
							(size 1.27 1.27)
						)
					)
				)
			)
			(pin bidirectional line
				(at -35.56 -48.26 0)
				(length 7.62)
				(name "PF7/eMIOS7"
					(effects
						(font
							(size 1.27 1.27)
						)
					)
				)
				(number "36"
					(effects
						(font
							(size 1.27 1.27)
						)
					)
				)
			)
			(pin bidirectional line
				(at -35.56 -45.72 0)
				(length 7.62)
				(name "PF6/eMIOS6"
					(effects
						(font
							(size 1.27 1.27)
						)
					)
				)
				(number "37"
					(effects
						(font
							(size 1.27 1.27)
						)
					)
				)
			)
			(pin bidirectional line
				(at -35.56 -43.18 0)
				(length 7.62)
				(name "PF5/eMIOS5"
					(effects
						(font
							(size 1.27 1.27)
						)
					)
				)
				(number "38"
					(effects
						(font
							(size 1.27 1.27)
						)
					)
				)
			)
			(pin bidirectional line
				(at -35.56 -40.64 0)
				(length 7.62)
				(name "PF4/eMIOS4"
					(effects
						(font
							(size 1.27 1.27)
						)
					)
				)
				(number "39"
					(effects
						(font
							(size 1.27 1.27)
						)
					)
				)
			)
			(pin bidirectional line
				(at 38.1 -38.1 180)
				(length 7.62)
				(name "PG9/CANRXD_C"
					(effects
						(font
							(size 1.27 1.27)
						)
					)
				)
				(number "4"
					(effects
						(font
							(size 1.27 1.27)
						)
					)
				)
			)
			(pin bidirectional line
				(at -35.56 -38.1 0)
				(length 7.62)
				(name "PF3/eMIOS3"
					(effects
						(font
							(size 1.27 1.27)
						)
					)
				)
				(number "40"
					(effects
						(font
							(size 1.27 1.27)
						)
					)
				)
			)
			(pin bidirectional line
				(at -35.56 -35.56 0)
				(length 7.62)
				(name "PF2/eMIOS2"
					(effects
						(font
							(size 1.27 1.27)
						)
					)
				)
				(number "41"
					(effects
						(font
							(size 1.27 1.27)
						)
					)
				)
			)
			(pin bidirectional line
				(at -35.56 -33.02 0)
				(length 7.62)
				(name "PF1/NEXPR/eMIOS1"
					(effects
						(font
							(size 1.27 1.27)
						)
					)
				)
				(number "42"
					(effects
						(font
							(size 1.27 1.27)
						)
					)
				)
			)
			(pin bidirectional line
				(at -35.56 -30.48 0)
				(length 7.62)
				(name "PF0/NEXPS/eMIOS0"
					(effects
						(font
							(size 1.27 1.27)
						)
					)
				)
				(number "43"
					(effects
						(font
							(size 1.27 1.27)
						)
					)
				)
			)
			(pin bidirectional line
				(at -35.56 7.62 0)
				(length 7.62)
				(name "PC8"
					(effects
						(font
							(size 1.27 1.27)
						)
					)
				)
				(number "44"
					(effects
						(font
							(size 1.27 1.27)
						)
					)
				)
			)
			(pin bidirectional line
				(at -35.56 5.08 0)
				(length 7.62)
				(name "PC9"
					(effects
						(font
							(size 1.27 1.27)
						)
					)
				)
				(number "45"
					(effects
						(font
							(size 1.27 1.27)
						)
					)
				)
			)
			(pin bidirectional line
				(at -35.56 2.54 0)
				(length 7.62)
				(name "PC10"
					(effects
						(font
							(size 1.27 1.27)
						)
					)
				)
				(number "46"
					(effects
						(font
							(size 1.27 1.27)
						)
					)
				)
			)
			(pin bidirectional line
				(at -35.56 0 0)
				(length 7.62)
				(name "PC11"
					(effects
						(font
							(size 1.27 1.27)
						)
					)
				)
				(number "47"
					(effects
						(font
							(size 1.27 1.27)
						)
					)
				)
			)
			(pin bidirectional inverted
				(at -35.56 78.74 0)
				(length 7.62)
				(name "RESET"
					(effects
						(font
							(size 1.27 1.27)
						)
					)
				)
				(number "48"
					(effects
						(font
							(size 1.27 1.27)
						)
					)
				)
			)
			(pin power_in line
				(at -12.7 -116.84 90)
				(length 7.62)
				(name "VssX"
					(effects
						(font
							(size 1.27 1.27)
						)
					)
				)
				(number "49"
					(effects
						(font
							(size 1.27 1.27)
						)
					)
				)
			)
			(pin bidirectional line
				(at 38.1 -40.64 180)
				(length 7.62)
				(name "PG10/CANTXD_D"
					(effects
						(font
							(size 1.27 1.27)
						)
					)
				)
				(number "5"
					(effects
						(font
							(size 1.27 1.27)
						)
					)
				)
			)
			(pin power_in line
				(at 7.62 96.52 270)
				(length 7.62)
				(name "VddX"
					(effects
						(font
							(size 1.27 1.27)
						)
					)
				)
				(number "50"
					(effects
						(font
							(size 1.27 1.27)
						)
					)
				)
			)
			(pin bidirectional line
				(at 38.1 -45.72 180)
				(length 7.62)
				(name "PG12/RXD_D"
					(effects
						(font
							(size 1.27 1.27)
						)
					)
				)
				(number "51"
					(effects
						(font
							(size 1.27 1.27)
						)
					)
				)
			)
			(pin bidirectional line
				(at 38.1 -48.26 180)
				(length 7.62)
				(name "PG13/TXD_D"
					(effects
						(font
							(size 1.27 1.27)
						)
					)
				)
				(number "52"
					(effects
						(font
							(size 1.27 1.27)
						)
					)
				)
			)
			(pin passive line
				(at -5.08 96.52 270)
				(length 7.62)
				(name "Vdd2.5"
					(effects
						(font
							(size 1.27 1.27)
						)
					)
				)
				(number "53"
					(effects
						(font
							(size 1.27 1.27)
						)
					)
				)
			)
			(pin passive line
				(at 2.54 -116.84 90)
				(length 7.62)
				(name "Vss2.5"
					(effects
						(font
							(size 1.27 1.27)
						)
					)
				)
				(number "54"
					(effects
						(font
							(size 1.27 1.27)
						)
					)
				)
			)
			(pin power_in line
				(at 12.7 -116.84 90)
				(length 7.62)
				(name "VssR"
					(effects
						(font
							(size 1.27 1.27)
						)
					)
				)
				(number "55"
					(effects
						(font
							(size 1.27 1.27)
						)
					)
				)
			)
			(pin power_in line
				(at 20.32 96.52 270)
				(length 7.62)
				(name "VddR"
					(effects
						(font
							(size 1.27 1.27)
						)
					)
				)
				(number "56"
					(effects
						(font
							(size 1.27 1.27)
						)
					)
				)
			)
			(pin passive line
				(at -12.7 96.52 270)
				(length 7.62)
				(name "VddPLL"
					(effects
						(font
							(size 1.27 1.27)
						)
					)
				)
				(number "57"
					(effects
						(font
							(size 1.27 1.27)
						)
					)
				)
			)
			(pin bidirectional line
				(at -17.78 96.52 270)
				(length 7.62)
				(name "XFC"
					(effects
						(font
							(size 1.27 1.27)
						)
					)
				)
				(number "58"
					(effects
						(font
							(size 1.27 1.27)
						)
					)
				)
			)
			(pin passive line
				(at 7.62 -116.84 90)
				(length 7.62)
				(name "VssPLL"
					(effects
						(font
							(size 1.27 1.27)
						)
					)
				)
				(number "59"
					(effects
						(font
							(size 1.27 1.27)
						)
					)
				)
			)
			(pin bidirectional line
				(at 38.1 -43.18 180)
				(length 7.62)
				(name "PG11/CANRXD_D"
					(effects
						(font
							(size 1.27 1.27)
						)
					)
				)
				(number "6"
					(effects
						(font
							(size 1.27 1.27)
						)
					)
				)
			)
			(pin input line
				(at -35.56 83.82 0)
				(length 7.62)
				(name "EXTAL"
					(effects
						(font
							(size 1.27 1.27)
						)
					)
				)
				(number "60"
					(effects
						(font
							(size 1.27 1.27)
						)
					)
				)
			)
			(pin output line
				(at -35.56 81.28 0)
				(length 7.62)
				(name "XTAL"
					(effects
						(font
							(size 1.27 1.27)
						)
					)
				)
				(number "61"
					(effects
						(font
							(size 1.27 1.27)
						)
					)
				)
			)
			(pin power_in line
				(at -10.16 -116.84 90)
				(length 7.62)
				(name "VssX"
					(effects
						(font
							(size 1.27 1.27)
						)
					)
				)
				(number "63"
					(effects
						(font
							(size 1.27 1.27)
						)
					)
				)
			)
			(pin power_in line
				(at 12.7 96.52 270)
				(length 7.62)
				(name "VddX"
					(effects
						(font
							(size 1.27 1.27)
						)
					)
				)
				(number "64"
					(effects
						(font
							(size 1.27 1.27)
						)
					)
				)
			)
			(pin bidirectional line
				(at -35.56 33.02 0)
				(length 7.62)
				(name "PA15"
					(effects
						(font
							(size 1.27 1.27)
						)
					)
				)
				(number "65"
					(effects
						(font
							(size 1.27 1.27)
						)
					)
				)
			)
			(pin bidirectional line
				(at -35.56 35.56 0)
				(length 7.62)
				(name "PA14"
					(effects
						(font
							(size 1.27 1.27)
						)
					)
				)
				(number "66"
					(effects
						(font
							(size 1.27 1.27)
						)
					)
				)
			)
			(pin bidirectional line
				(at -35.56 38.1 0)
				(length 7.62)
				(name "PA13"
					(effects
						(font
							(size 1.27 1.27)
						)
					)
				)
				(number "67"
					(effects
						(font
							(size 1.27 1.27)
						)
					)
				)
			)
			(pin bidirectional line
				(at -35.56 -5.08 0)
				(length 7.62)
				(name "PD11"
					(effects
						(font
							(size 1.27 1.27)
						)
					)
				)
				(number "68"
					(effects
						(font
							(size 1.27 1.27)
						)
					)
				)
			)
			(pin bidirectional line
				(at -35.56 -7.62 0)
				(length 7.62)
				(name "PD12"
					(effects
						(font
							(size 1.27 1.27)
						)
					)
				)
				(number "69"
					(effects
						(font
							(size 1.27 1.27)
						)
					)
				)
			)
			(pin bidirectional line
				(at 38.1 -30.48 180)
				(length 7.62)
				(name "PG6/CANTXD_B"
					(effects
						(font
							(size 1.27 1.27)
						)
					)
				)
				(number "7"
					(effects
						(font
							(size 1.27 1.27)
						)
					)
				)
			)
			(pin bidirectional line
				(at -35.56 76.2 0)
				(length 7.62)
				(name "PD0/MODB"
					(effects
						(font
							(size 1.27 1.27)
						)
					)
				)
				(number "70"
					(effects
						(font
							(size 1.27 1.27)
						)
					)
				)
			)
			(pin bidirectional line
				(at -35.56 73.66 0)
				(length 7.62)
				(name "PD1/MODA"
					(effects
						(font
							(size 1.27 1.27)
						)
					)
				)
				(number "71"
					(effects
						(font
							(size 1.27 1.27)
						)
					)
				)
			)
			(pin bidirectional line
				(at 38.1 -81.28 180)
				(length 7.62)
				(name "PB9/PCS0_B/SS_B"
					(effects
						(font
							(size 1.27 1.27)
						)
					)
				)
				(number "72"
					(effects
						(font
							(size 1.27 1.27)
						)
					)
				)
			)
			(pin bidirectional line
				(at 38.1 -83.82 180)
				(length 7.62)
				(name "PB10/PCS5_B/PCSS_B"
					(effects
						(font
							(size 1.27 1.27)
						)
					)
				)
				(number "73"
					(effects
						(font
							(size 1.27 1.27)
						)
					)
				)
			)
			(pin bidirectional line
				(at 38.1 -86.36 180)
				(length 7.62)
				(name "PB11/PCS2_B"
					(effects
						(font
							(size 1.27 1.27)
						)
					)
				)
				(number "74"
					(effects
						(font
							(size 1.27 1.27)
						)
					)
				)
			)
			(pin bidirectional line
				(at 38.1 -88.9 180)
				(length 7.62)
				(name "PB12/PCS1_B"
					(effects
						(font
							(size 1.27 1.27)
						)
					)
				)
				(number "75"
					(effects
						(font
							(size 1.27 1.27)
						)
					)
				)
			)
			(pin bidirectional line
				(at 38.1 -91.44 180)
				(length 7.62)
				(name "PB13/PCSSCK_B"
					(effects
						(font
							(size 1.27 1.27)
						)
					)
				)
				(number "76"
					(effects
						(font
							(size 1.27 1.27)
						)
					)
				)
			)
			(pin bidirectional line
				(at 38.1 -93.98 180)
				(length 7.62)
				(name "PB14/SOUT_B"
					(effects
						(font
							(size 1.27 1.27)
						)
					)
				)
				(number "77"
					(effects
						(font
							(size 1.27 1.27)
						)
					)
				)
			)
			(pin bidirectional line
				(at 38.1 -96.52 180)
				(length 7.62)
				(name "PB15/SIN_B"
					(effects
						(font
							(size 1.27 1.27)
						)
					)
				)
				(number "78"
					(effects
						(font
							(size 1.27 1.27)
						)
					)
				)
			)
			(pin power_in line
				(at -17.78 -116.84 90)
				(length 7.62)
				(name "VssX"
					(effects
						(font
							(size 1.27 1.27)
						)
					)
				)
				(number "79"
					(effects
						(font
							(size 1.27 1.27)
						)
					)
				)
			)
			(pin bidirectional line
				(at 38.1 -33.02 180)
				(length 7.62)
				(name "PG7/CANRXD_B"
					(effects
						(font
							(size 1.27 1.27)
						)
					)
				)
				(number "8"
					(effects
						(font
							(size 1.27 1.27)
						)
					)
				)
			)
			(pin bidirectional line
				(at -35.56 71.12 0)
				(length 7.62)
				(name "PD2/CLKOUT/XCLKS"
					(effects
						(font
							(size 1.27 1.27)
						)
					)
				)
				(number "80"
					(effects
						(font
							(size 1.27 1.27)
						)
					)
				)
			)
			(pin bidirectional line
				(at -35.56 68.58 0)
				(length 7.62)
				(name "PD3/XIRQ"
					(effects
						(font
							(size 1.27 1.27)
						)
					)
				)
				(number "81"
					(effects
						(font
							(size 1.27 1.27)
						)
					)
				)
			)
			(pin bidirectional line
				(at -35.56 66.04 0)
				(length 7.62)
				(name "PD4/IRQ"
					(effects
						(font
							(size 1.27 1.27)
						)
					)
				)
				(number "82"
					(effects
						(font
							(size 1.27 1.27)
						)
					)
				)
			)
			(pin bidirectional line
				(at -35.56 -10.16 0)
				(length 7.62)
				(name "PD13"
					(effects
						(font
							(size 1.27 1.27)
						)
					)
				)
				(number "83"
					(effects
						(font
							(size 1.27 1.27)
						)
					)
				)
			)
			(pin bidirectional line
				(at -35.56 -12.7 0)
				(length 7.62)
				(name "PD14"
					(effects
						(font
							(size 1.27 1.27)
						)
					)
				)
				(number "84"
					(effects
						(font
							(size 1.27 1.27)
						)
					)
				)
			)
			(pin bidirectional line
				(at -35.56 -15.24 0)
				(length 7.62)
				(name "PD15"
					(effects
						(font
							(size 1.27 1.27)
						)
					)
				)
				(number "85"
					(effects
						(font
							(size 1.27 1.27)
						)
					)
				)
			)
			(pin power_in line
				(at -7.62 -116.84 90)
				(length 7.62)
				(name "VssX"
					(effects
						(font
							(size 1.27 1.27)
						)
					)
				)
				(number "86"
					(effects
						(font
							(size 1.27 1.27)
						)
					)
				)
			)
			(pin power_in line
				(at 10.16 96.52 270)
				(length 7.62)
				(name "VddX"
					(effects
						(font
							(size 1.27 1.27)
						)
					)
				)
				(number "87"
					(effects
						(font
							(size 1.27 1.27)
						)
					)
				)
			)
			(pin bidirectional line
				(at 38.1 71.12 180)
				(length 7.62)
				(name "PH0/AN0_B"
					(effects
						(font
							(size 1.27 1.27)
						)
					)
				)
				(number "88"
					(effects
						(font
							(size 1.27 1.27)
						)
					)
				)
			)
			(pin bidirectional line
				(at 38.1 68.58 180)
				(length 7.62)
				(name "MCKO'/PE0/AN0_A"
					(effects
						(font
							(size 1.27 1.27)
						)
					)
				)
				(number "89"
					(effects
						(font
							(size 1.27 1.27)
						)
					)
				)
			)
			(pin bidirectional line
				(at -35.56 27.94 0)
				(length 7.62)
				(name "PC0"
					(effects
						(font
							(size 1.27 1.27)
						)
					)
				)
				(number "9"
					(effects
						(font
							(size 1.27 1.27)
						)
					)
				)
			)
			(pin bidirectional line
				(at 38.1 66.04 180)
				(length 7.62)
				(name "PH1/AN1_B"
					(effects
						(font
							(size 1.27 1.27)
						)
					)
				)
				(number "90"
					(effects
						(font
							(size 1.27 1.27)
						)
					)
				)
			)
			(pin bidirectional line
				(at 38.1 63.5 180)
				(length 7.62)
				(name "EVTO'/PE1/AN1_A"
					(effects
						(font
							(size 1.27 1.27)
						)
					)
				)
				(number "91"
					(effects
						(font
							(size 1.27 1.27)
						)
					)
				)
			)
			(pin bidirectional line
				(at 38.1 60.96 180)
				(length 7.62)
				(name "PH2/AN2_B"
					(effects
						(font
							(size 1.27 1.27)
						)
					)
				)
				(number "92"
					(effects
						(font
							(size 1.27 1.27)
						)
					)
				)
			)
			(pin bidirectional line
				(at 38.1 58.42 180)
				(length 7.62)
				(name "EVTI'/PE2/AN2_A"
					(effects
						(font
							(size 1.27 1.27)
						)
					)
				)
				(number "93"
					(effects
						(font
							(size 1.27 1.27)
						)
					)
				)
			)
			(pin bidirectional line
				(at 38.1 55.88 180)
				(length 7.62)
				(name "PH3/AN3_B"
					(effects
						(font
							(size 1.27 1.27)
						)
					)
				)
				(number "94"
					(effects
						(font
							(size 1.27 1.27)
						)
					)
				)
			)
			(pin bidirectional line
				(at 38.1 53.34 180)
				(length 7.62)
				(name "MDO0'/PE3/AN3_A"
					(effects
						(font
							(size 1.27 1.27)
						)
					)
				)
				(number "95"
					(effects
						(font
							(size 1.27 1.27)
						)
					)
				)
			)
			(pin bidirectional line
				(at 38.1 50.8 180)
				(length 7.62)
				(name "PH4/AN4_B"
					(effects
						(font
							(size 1.27 1.27)
						)
					)
				)
				(number "96"
					(effects
						(font
							(size 1.27 1.27)
						)
					)
				)
			)
			(pin bidirectional line
				(at 38.1 48.26 180)
				(length 7.62)
				(name "MDO1'/PE4/AN4_A"
					(effects
						(font
							(size 1.27 1.27)
						)
					)
				)
				(number "97"
					(effects
						(font
							(size 1.27 1.27)
						)
					)
				)
			)
			(pin bidirectional line
				(at 38.1 45.72 180)
				(length 7.62)
				(name "PH5/AN5_B"
					(effects
						(font
							(size 1.27 1.27)
						)
					)
				)
				(number "98"
					(effects
						(font
							(size 1.27 1.27)
						)
					)
				)
			)
			(pin bidirectional line
				(at 38.1 43.18 180)
				(length 7.62)
				(name "MSEO'/PE5/AN5_A"
					(effects
						(font
							(size 1.27 1.27)
						)
					)
				)
				(number "99"
					(effects
						(font
							(size 1.27 1.27)
						)
					)
				)
			)
		)
	)
	(symbol "MAC7111"
		(pin_names
			(offset 1.016)
		)
		(exclude_from_sim no)
		(in_bom yes)
		(on_board yes)
		(property "Reference" "U"
			(at -1.27 -44.45 0)
			(effects
				(font
					(size 1.27 1.27)
				)
			)
		)
		(property "Value" "MAC7111"
			(at -1.27 16.51 0)
			(effects
				(font
					(size 1.27 1.27)
				)
			)
		)
		(property "Footprint" "Package_QFP:LQFP-144_20x20mm_P0.5mm"
			(at -1.27 -1.27 0)
			(effects
				(font
					(size 1.27 1.27)
				)
				(hide yes)
			)
		)
		(property "Datasheet" "https://www.nxp.com/docs/en/data-sheet/MAC7100EC.pdf"
			(at -1.27 -1.27 0)
			(effects
				(font
					(size 1.27 1.27)
				)
				(hide yes)
			)
		)
		(property "Description" "Automotive ARM7TDMI-S-based Microcontroller, LQFP-144"
			(at 0 0 0)
			(effects
				(font
					(size 1.27 1.27)
				)
				(hide yes)
			)
		)
		(property "ki_keywords" "ARM7TDMI-S MCU"
			(at 0 0 0)
			(effects
				(font
					(size 1.27 1.27)
				)
				(hide yes)
			)
		)
		(property "ki_fp_filters" "LQFP*20x20mm*P0.5mm*"
			(at 0 0 0)
			(effects
				(font
					(size 1.27 1.27)
				)
				(hide yes)
			)
		)
		(symbol "MAC7111_0_1"
			(rectangle
				(start 27.94 -109.22)
				(end -30.48 88.9)
				(stroke
					(width 0.254)
					(type default)
				)
				(fill
					(type background)
				)
			)
		)
		(symbol "MAC7111_1_1"
			(pin bidirectional line
				(at 35.56 -25.4 180)
				(length 7.62)
				(name "PG4/CANTXD_A"
					(effects
						(font
							(size 1.27 1.27)
						)
					)
				)
				(number "1"
					(effects
						(font
							(size 1.27 1.27)
						)
					)
				)
			)
			(pin bidirectional line
				(at -38.1 25.4 0)
				(length 7.62)
				(name "PC1/ADDR1"
					(effects
						(font
							(size 1.27 1.27)
						)
					)
				)
				(number "10"
					(effects
						(font
							(size 1.27 1.27)
						)
					)
				)
			)
			(pin bidirectional line
				(at 35.56 68.58 180)
				(length 7.62)
				(name "PE1/EVTO'/AN1_A"
					(effects
						(font
							(size 1.27 1.27)
						)
					)
				)
				(number "100"
					(effects
						(font
							(size 1.27 1.27)
						)
					)
				)
			)
			(pin bidirectional line
				(at 35.56 66.04 180)
				(length 7.62)
				(name "PE2/EVTI'/AN2_A"
					(effects
						(font
							(size 1.27 1.27)
						)
					)
				)
				(number "101"
					(effects
						(font
							(size 1.27 1.27)
						)
					)
				)
			)
			(pin bidirectional line
				(at 35.56 63.5 180)
				(length 7.62)
				(name "PE3/MDO0'/AN3_A"
					(effects
						(font
							(size 1.27 1.27)
						)
					)
				)
				(number "102"
					(effects
						(font
							(size 1.27 1.27)
						)
					)
				)
			)
			(pin bidirectional line
				(at 35.56 60.96 180)
				(length 7.62)
				(name "PE4/MDO1'/AN4_A"
					(effects
						(font
							(size 1.27 1.27)
						)
					)
				)
				(number "103"
					(effects
						(font
							(size 1.27 1.27)
						)
					)
				)
			)
			(pin bidirectional line
				(at 35.56 58.42 180)
				(length 7.62)
				(name "PE5/MSEO'/AN5_A"
					(effects
						(font
							(size 1.27 1.27)
						)
					)
				)
				(number "104"
					(effects
						(font
							(size 1.27 1.27)
						)
					)
				)
			)
			(pin bidirectional line
				(at 35.56 55.88 180)
				(length 7.62)
				(name "PE6/RDY/AN6_A"
					(effects
						(font
							(size 1.27 1.27)
						)
					)
				)
				(number "105"
					(effects
						(font
							(size 1.27 1.27)
						)
					)
				)
			)
			(pin bidirectional line
				(at 35.56 53.34 180)
				(length 7.62)
				(name "PE7/AN7_A"
					(effects
						(font
							(size 1.27 1.27)
						)
					)
				)
				(number "106"
					(effects
						(font
							(size 1.27 1.27)
						)
					)
				)
			)
			(pin bidirectional line
				(at 35.56 50.8 180)
				(length 7.62)
				(name "PE8/AN8_A"
					(effects
						(font
							(size 1.27 1.27)
						)
					)
				)
				(number "107"
					(effects
						(font
							(size 1.27 1.27)
						)
					)
				)
			)
			(pin bidirectional line
				(at 35.56 48.26 180)
				(length 7.62)
				(name "PE9/AN9_A"
					(effects
						(font
							(size 1.27 1.27)
						)
					)
				)
				(number "108"
					(effects
						(font
							(size 1.27 1.27)
						)
					)
				)
			)
			(pin power_in line
				(at 20.32 96.52 270)
				(length 7.62)
				(name "VddA"
					(effects
						(font
							(size 1.27 1.27)
						)
					)
				)
				(number "109"
					(effects
						(font
							(size 1.27 1.27)
						)
					)
				)
			)
			(pin bidirectional line
				(at -38.1 22.86 0)
				(length 7.62)
				(name "PC2/ADDR2"
					(effects
						(font
							(size 1.27 1.27)
						)
					)
				)
				(number "11"
					(effects
						(font
							(size 1.27 1.27)
						)
					)
				)
			)
			(pin passive line
				(at -38.1 -106.68 0)
				(length 7.62)
				(name "VRL"
					(effects
						(font
							(size 1.27 1.27)
						)
					)
				)
				(number "110"
					(effects
						(font
							(size 1.27 1.27)
						)
					)
				)
			)
			(pin passive line
				(at -38.1 -104.14 0)
				(length 7.62)
				(name "VRH"
					(effects
						(font
							(size 1.27 1.27)
						)
					)
				)
				(number "111"
					(effects
						(font
							(size 1.27 1.27)
						)
					)
				)
			)
			(pin power_in line
				(at 12.7 -116.84 90)
				(length 7.62)
				(name "VssA"
					(effects
						(font
							(size 1.27 1.27)
						)
					)
				)
				(number "112"
					(effects
						(font
							(size 1.27 1.27)
						)
					)
				)
			)
			(pin bidirectional line
				(at 35.56 45.72 180)
				(length 7.62)
				(name "PE10/AN10_A"
					(effects
						(font
							(size 1.27 1.27)
						)
					)
				)
				(number "113"
					(effects
						(font
							(size 1.27 1.27)
						)
					)
				)
			)
			(pin bidirectional line
				(at 35.56 43.18 180)
				(length 7.62)
				(name "PE11/AN11_A"
					(effects
						(font
							(size 1.27 1.27)
						)
					)
				)
				(number "114"
					(effects
						(font
							(size 1.27 1.27)
						)
					)
				)
			)
			(pin bidirectional line
				(at 35.56 40.64 180)
				(length 7.62)
				(name "PE12/AN12_A"
					(effects
						(font
							(size 1.27 1.27)
						)
					)
				)
				(number "115"
					(effects
						(font
							(size 1.27 1.27)
						)
					)
				)
			)
			(pin bidirectional line
				(at 35.56 38.1 180)
				(length 7.62)
				(name "PE13/AN13_A"
					(effects
						(font
							(size 1.27 1.27)
						)
					)
				)
				(number "116"
					(effects
						(font
							(size 1.27 1.27)
						)
					)
				)
			)
			(pin bidirectional line
				(at 35.56 35.56 180)
				(length 7.62)
				(name "PE14/AN14_A"
					(effects
						(font
							(size 1.27 1.27)
						)
					)
				)
				(number "117"
					(effects
						(font
							(size 1.27 1.27)
						)
					)
				)
			)
			(pin bidirectional line
				(at 35.56 33.02 180)
				(length 7.62)
				(name "PE15/AN15_A"
					(effects
						(font
							(size 1.27 1.27)
						)
					)
				)
				(number "118"
					(effects
						(font
							(size 1.27 1.27)
						)
					)
				)
			)
			(pin bidirectional line
				(at -38.1 -15.24 0)
				(length 7.62)
				(name "PD6/ADDR17"
					(effects
						(font
							(size 1.27 1.27)
						)
					)
				)
				(number "119"
					(effects
						(font
							(size 1.27 1.27)
						)
					)
				)
			)
			(pin bidirectional line
				(at -38.1 20.32 0)
				(length 7.62)
				(name "PC3/ADDR3"
					(effects
						(font
							(size 1.27 1.27)
						)
					)
				)
				(number "12"
					(effects
						(font
							(size 1.27 1.27)
						)
					)
				)
			)
			(pin bidirectional line
				(at -38.1 -17.78 0)
				(length 7.62)
				(name "PD7/ADDR18"
					(effects
						(font
							(size 1.27 1.27)
						)
					)
				)
				(number "120"
					(effects
						(font
							(size 1.27 1.27)
						)
					)
				)
			)
			(pin bidirectional line
				(at -38.1 -20.32 0)
				(length 7.62)
				(name "PD8/ADDR19"
					(effects
						(font
							(size 1.27 1.27)
						)
					)
				)
				(number "121"
					(effects
						(font
							(size 1.27 1.27)
						)
					)
				)
			)
			(pin bidirectional line
				(at -38.1 -22.86 0)
				(length 7.62)
				(name "PD9/ADDR20"
					(effects
						(font
							(size 1.27 1.27)
						)
					)
				)
				(number "122"
					(effects
						(font
							(size 1.27 1.27)
						)
					)
				)
			)
			(pin bidirectional line
				(at -38.1 -25.4 0)
				(length 7.62)
				(name "PD10/ADDR21"
					(effects
						(font
							(size 1.27 1.27)
						)
					)
				)
				(number "123"
					(effects
						(font
							(size 1.27 1.27)
						)
					)
				)
			)
			(pin power_in line
				(at 12.7 96.52 270)
				(length 7.62)
				(name "VddX"
					(effects
						(font
							(size 1.27 1.27)
						)
					)
				)
				(number "124"
					(effects
						(font
							(size 1.27 1.27)
						)
					)
				)
			)
			(pin power_in line
				(at -7.62 -116.84 90)
				(length 7.62)
				(name "VssX"
					(effects
						(font
							(size 1.27 1.27)
						)
					)
				)
				(number "125"
					(effects
						(font
							(size 1.27 1.27)
						)
					)
				)
			)
			(pin power_in line
				(at 0 -116.84 90)
				(length 7.62)
				(name "Vss2.5"
					(effects
						(font
							(size 1.27 1.27)
						)
					)
				)
				(number "126"
					(effects
						(font
							(size 1.27 1.27)
						)
					)
				)
			)
			(pin power_in line
				(at -5.08 96.52 270)
				(length 7.62)
				(name "Vdd2.5"
					(effects
						(font
							(size 1.27 1.27)
						)
					)
				)
				(number "127"
					(effects
						(font
							(size 1.27 1.27)
						)
					)
				)
			)
			(pin input line
				(at 35.56 76.2 180)
				(length 7.62)
				(name "TDI"
					(effects
						(font
							(size 1.27 1.27)
						)
					)
				)
				(number "128"
					(effects
						(font
							(size 1.27 1.27)
						)
					)
				)
			)
			(pin output line
				(at 35.56 78.74 180)
				(length 7.62)
				(name "TDO"
					(effects
						(font
							(size 1.27 1.27)
						)
					)
				)
				(number "129"
					(effects
						(font
							(size 1.27 1.27)
						)
					)
				)
			)
			(pin power_in line
				(at -17.78 -116.84 90)
				(length 7.62)
				(name "VssX"
					(effects
						(font
							(size 1.27 1.27)
						)
					)
				)
				(number "13"
					(effects
						(font
							(size 1.27 1.27)
						)
					)
				)
			)
			(pin input line
				(at 35.56 81.28 180)
				(length 7.62)
				(name "TCK"
					(effects
						(font
							(size 1.27 1.27)
						)
					)
				)
				(number "130"
					(effects
						(font
							(size 1.27 1.27)
						)
					)
				)
			)
			(pin input line
				(at 35.56 83.82 180)
				(length 7.62)
				(name "TMS"
					(effects
						(font
							(size 1.27 1.27)
						)
					)
				)
				(number "131"
					(effects
						(font
							(size 1.27 1.27)
						)
					)
				)
			)
			(pin bidirectional line
				(at -38.1 55.88 0)
				(length 7.62)
				(name "PA6/DATA6/RDY"
					(effects
						(font
							(size 1.27 1.27)
						)
					)
				)
				(number "132"
					(effects
						(font
							(size 1.27 1.27)
						)
					)
				)
			)
			(pin bidirectional line
				(at -38.1 58.42 0)
				(length 7.62)
				(name "PA5/DATA5/MSEO"
					(effects
						(font
							(size 1.27 1.27)
						)
					)
				)
				(number "133"
					(effects
						(font
							(size 1.27 1.27)
						)
					)
				)
			)
			(pin bidirectional line
				(at -38.1 60.96 0)
				(length 7.62)
				(name "PA4/DATA4/MDO1"
					(effects
						(font
							(size 1.27 1.27)
						)
					)
				)
				(number "134"
					(effects
						(font
							(size 1.27 1.27)
						)
					)
				)
			)
			(pin bidirectional line
				(at -38.1 63.5 0)
				(length 7.62)
				(name "PA3/DATA3/MDO0"
					(effects
						(font
							(size 1.27 1.27)
						)
					)
				)
				(number "135"
					(effects
						(font
							(size 1.27 1.27)
						)
					)
				)
			)
			(pin bidirectional line
				(at -38.1 66.04 0)
				(length 7.62)
				(name "PA2/DATA2/EVTI"
					(effects
						(font
							(size 1.27 1.27)
						)
					)
				)
				(number "136"
					(effects
						(font
							(size 1.27 1.27)
						)
					)
				)
			)
			(pin bidirectional line
				(at -38.1 68.58 0)
				(length 7.62)
				(name "PA1/DATA1/EVTO"
					(effects
						(font
							(size 1.27 1.27)
						)
					)
				)
				(number "137"
					(effects
						(font
							(size 1.27 1.27)
						)
					)
				)
			)
			(pin bidirectional line
				(at -38.1 71.12 0)
				(length 7.62)
				(name "PA0/DATA0/MCKO"
					(effects
						(font
							(size 1.27 1.27)
						)
					)
				)
				(number "138"
					(effects
						(font
							(size 1.27 1.27)
						)
					)
				)
			)
			(pin bidirectional line
				(at 35.56 -50.8 180)
				(length 7.62)
				(name "PG14/RXD_C"
					(effects
						(font
							(size 1.27 1.27)
						)
					)
				)
				(number "139"
					(effects
						(font
							(size 1.27 1.27)
						)
					)
				)
			)
			(pin power_in line
				(at 2.54 96.52 270)
				(length 7.62)
				(name "VddX"
					(effects
						(font
							(size 1.27 1.27)
						)
					)
				)
				(number "14"
					(effects
						(font
							(size 1.27 1.27)
						)
					)
				)
			)
			(pin bidirectional line
				(at 35.56 -53.34 180)
				(length 7.62)
				(name "PG15/TXD_C"
					(effects
						(font
							(size 1.27 1.27)
						)
					)
				)
				(number "140"
					(effects
						(font
							(size 1.27 1.27)
						)
					)
				)
			)
			(pin bidirectional line
				(at 35.56 -15.24 180)
				(length 7.62)
				(name "PG0/RXD_B"
					(effects
						(font
							(size 1.27 1.27)
						)
					)
				)
				(number "141"
					(effects
						(font
							(size 1.27 1.27)
						)
					)
				)
			)
			(pin bidirectional line
				(at 35.56 -17.78 180)
				(length 7.62)
				(name "PG1/TXD_B"
					(effects
						(font
							(size 1.27 1.27)
						)
					)
				)
				(number "142"
					(effects
						(font
							(size 1.27 1.27)
						)
					)
				)
			)
			(pin bidirectional line
				(at 35.56 -20.32 180)
				(length 7.62)
				(name "PG2/RXD_A"
					(effects
						(font
							(size 1.27 1.27)
						)
					)
				)
				(number "143"
					(effects
						(font
							(size 1.27 1.27)
						)
					)
				)
			)
			(pin bidirectional line
				(at 35.56 -22.86 180)
				(length 7.62)
				(name "PG3/TXD_A"
					(effects
						(font
							(size 1.27 1.27)
						)
					)
				)
				(number "144"
					(effects
						(font
							(size 1.27 1.27)
						)
					)
				)
			)
			(pin bidirectional line
				(at 35.56 -58.42 180)
				(length 7.62)
				(name "PB0/SDA"
					(effects
						(font
							(size 1.27 1.27)
						)
					)
				)
				(number "15"
					(effects
						(font
							(size 1.27 1.27)
						)
					)
				)
			)
			(pin bidirectional line
				(at 35.56 -60.96 180)
				(length 7.62)
				(name "PB1/SCL"
					(effects
						(font
							(size 1.27 1.27)
						)
					)
				)
				(number "16"
					(effects
						(font
							(size 1.27 1.27)
						)
					)
				)
			)
			(pin bidirectional line
				(at 35.56 -63.5 180)
				(length 7.62)
				(name "PB2/SIN_A"
					(effects
						(font
							(size 1.27 1.27)
						)
					)
				)
				(number "17"
					(effects
						(font
							(size 1.27 1.27)
						)
					)
				)
			)
			(pin bidirectional line
				(at 35.56 -66.04 180)
				(length 7.62)
				(name "PB3/SOUT_A"
					(effects
						(font
							(size 1.27 1.27)
						)
					)
				)
				(number "18"
					(effects
						(font
							(size 1.27 1.27)
						)
					)
				)
			)
			(pin bidirectional line
				(at 35.56 -68.58 180)
				(length 7.62)
				(name "PB4/SCK_A"
					(effects
						(font
							(size 1.27 1.27)
						)
					)
				)
				(number "19"
					(effects
						(font
							(size 1.27 1.27)
						)
					)
				)
			)
			(pin bidirectional line
				(at 35.56 -27.94 180)
				(length 7.62)
				(name "PG5/CANRXD_A"
					(effects
						(font
							(size 1.27 1.27)
						)
					)
				)
				(number "2"
					(effects
						(font
							(size 1.27 1.27)
						)
					)
				)
			)
			(pin bidirectional line
				(at 35.56 -71.12 180)
				(length 7.62)
				(name "PB5/PCS0_A/SS_A"
					(effects
						(font
							(size 1.27 1.27)
						)
					)
				)
				(number "20"
					(effects
						(font
							(size 1.27 1.27)
						)
					)
				)
			)
			(pin bidirectional line
				(at 35.56 -73.66 180)
				(length 7.62)
				(name "PB6/PCS1_A"
					(effects
						(font
							(size 1.27 1.27)
						)
					)
				)
				(number "21"
					(effects
						(font
							(size 1.27 1.27)
						)
					)
				)
			)
			(pin bidirectional line
				(at 35.56 -76.2 180)
				(length 7.62)
				(name "PB7"
					(effects
						(font
							(size 1.27 1.27)
						)
					)
				)
				(number "22"
					(effects
						(font
							(size 1.27 1.27)
						)
					)
				)
			)
			(pin bidirectional line
				(at 35.56 -78.74 180)
				(length 7.62)
				(name "PB8/PCS5_A/PCSS_A"
					(effects
						(font
							(size 1.27 1.27)
						)
					)
				)
				(number "23"
					(effects
						(font
							(size 1.27 1.27)
						)
					)
				)
			)
			(pin bidirectional line
				(at 35.56 -10.16 180)
				(length 7.62)
				(name "PF15/eMIOS15"
					(effects
						(font
							(size 1.27 1.27)
						)
					)
				)
				(number "24"
					(effects
						(font
							(size 1.27 1.27)
						)
					)
				)
			)
			(pin bidirectional line
				(at 35.56 -7.62 180)
				(length 7.62)
				(name "PF14/eMIOS14"
					(effects
						(font
							(size 1.27 1.27)
						)
					)
				)
				(number "25"
					(effects
						(font
							(size 1.27 1.27)
						)
					)
				)
			)
			(pin bidirectional line
				(at 35.56 -5.08 180)
				(length 7.62)
				(name "PF13/eMIOS13"
					(effects
						(font
							(size 1.27 1.27)
						)
					)
				)
				(number "26"
					(effects
						(font
							(size 1.27 1.27)
						)
					)
				)
			)
			(pin bidirectional line
				(at 35.56 -2.54 180)
				(length 7.62)
				(name "PF12/eMIOS12"
					(effects
						(font
							(size 1.27 1.27)
						)
					)
				)
				(number "27"
					(effects
						(font
							(size 1.27 1.27)
						)
					)
				)
			)
			(pin bidirectional line
				(at -38.1 17.78 0)
				(length 7.62)
				(name "PC4/ADDR4"
					(effects
						(font
							(size 1.27 1.27)
						)
					)
				)
				(number "28"
					(effects
						(font
							(size 1.27 1.27)
						)
					)
				)
			)
			(pin bidirectional line
				(at -38.1 15.24 0)
				(length 7.62)
				(name "PC5/ADDR5"
					(effects
						(font
							(size 1.27 1.27)
						)
					)
				)
				(number "29"
					(effects
						(font
							(size 1.27 1.27)
						)
					)
				)
			)
			(pin bidirectional line
				(at 35.56 -35.56 180)
				(length 7.62)
				(name "PG8/CANTXD_C"
					(effects
						(font
							(size 1.27 1.27)
						)
					)
				)
				(number "3"
					(effects
						(font
							(size 1.27 1.27)
						)
					)
				)
			)
			(pin bidirectional line
				(at -38.1 12.7 0)
				(length 7.62)
				(name "PC6/ADDR6"
					(effects
						(font
							(size 1.27 1.27)
						)
					)
				)
				(number "30"
					(effects
						(font
							(size 1.27 1.27)
						)
					)
				)
			)
			(pin bidirectional line
				(at -38.1 10.16 0)
				(length 7.62)
				(name "PC7/ADDR7"
					(effects
						(font
							(size 1.27 1.27)
						)
					)
				)
				(number "31"
					(effects
						(font
							(size 1.27 1.27)
						)
					)
				)
			)
			(pin bidirectional line
				(at 35.56 0 180)
				(length 7.62)
				(name "PF11/eMIOS11"
					(effects
						(font
							(size 1.27 1.27)
						)
					)
				)
				(number "32"
					(effects
						(font
							(size 1.27 1.27)
						)
					)
				)
			)
			(pin bidirectional line
				(at 35.56 2.54 180)
				(length 7.62)
				(name "PF10/eMIOS10"
					(effects
						(font
							(size 1.27 1.27)
						)
					)
				)
				(number "33"
					(effects
						(font
							(size 1.27 1.27)
						)
					)
				)
			)
			(pin bidirectional line
				(at 35.56 5.08 180)
				(length 7.62)
				(name "PF9/eMIOS9"
					(effects
						(font
							(size 1.27 1.27)
						)
					)
				)
				(number "34"
					(effects
						(font
							(size 1.27 1.27)
						)
					)
				)
			)
			(pin bidirectional line
				(at 35.56 7.62 180)
				(length 7.62)
				(name "PF8/eMIOS8"
					(effects
						(font
							(size 1.27 1.27)
						)
					)
				)
				(number "35"
					(effects
						(font
							(size 1.27 1.27)
						)
					)
				)
			)
			(pin bidirectional line
				(at 35.56 10.16 180)
				(length 7.62)
				(name "PF7/eMIOS7"
					(effects
						(font
							(size 1.27 1.27)
						)
					)
				)
				(number "36"
					(effects
						(font
							(size 1.27 1.27)
						)
					)
				)
			)
			(pin bidirectional line
				(at 35.56 12.7 180)
				(length 7.62)
				(name "PF6/eMIOS6"
					(effects
						(font
							(size 1.27 1.27)
						)
					)
				)
				(number "37"
					(effects
						(font
							(size 1.27 1.27)
						)
					)
				)
			)
			(pin bidirectional line
				(at 35.56 15.24 180)
				(length 7.62)
				(name "PF5/eMIOS5"
					(effects
						(font
							(size 1.27 1.27)
						)
					)
				)
				(number "38"
					(effects
						(font
							(size 1.27 1.27)
						)
					)
				)
			)
			(pin bidirectional line
				(at 35.56 17.78 180)
				(length 7.62)
				(name "PF4/eMIOS4"
					(effects
						(font
							(size 1.27 1.27)
						)
					)
				)
				(number "39"
					(effects
						(font
							(size 1.27 1.27)
						)
					)
				)
			)
			(pin bidirectional line
				(at 35.56 -38.1 180)
				(length 7.62)
				(name "PG9/CANRXD_C"
					(effects
						(font
							(size 1.27 1.27)
						)
					)
				)
				(number "4"
					(effects
						(font
							(size 1.27 1.27)
						)
					)
				)
			)
			(pin bidirectional line
				(at 35.56 20.32 180)
				(length 7.62)
				(name "PF3/eMIOS3"
					(effects
						(font
							(size 1.27 1.27)
						)
					)
				)
				(number "40"
					(effects
						(font
							(size 1.27 1.27)
						)
					)
				)
			)
			(pin bidirectional line
				(at 35.56 22.86 180)
				(length 7.62)
				(name "PF2/eMIOS2"
					(effects
						(font
							(size 1.27 1.27)
						)
					)
				)
				(number "41"
					(effects
						(font
							(size 1.27 1.27)
						)
					)
				)
			)
			(pin bidirectional line
				(at 35.56 25.4 180)
				(length 7.62)
				(name "PF1/NEXPR/eMIOS1"
					(effects
						(font
							(size 1.27 1.27)
						)
					)
				)
				(number "42"
					(effects
						(font
							(size 1.27 1.27)
						)
					)
				)
			)
			(pin bidirectional line
				(at 35.56 27.94 180)
				(length 7.62)
				(name "PF0/NEXPS/eMIOS0"
					(effects
						(font
							(size 1.27 1.27)
						)
					)
				)
				(number "43"
					(effects
						(font
							(size 1.27 1.27)
						)
					)
				)
			)
			(pin bidirectional line
				(at -38.1 7.62 0)
				(length 7.62)
				(name "PC8/ADDR8"
					(effects
						(font
							(size 1.27 1.27)
						)
					)
				)
				(number "44"
					(effects
						(font
							(size 1.27 1.27)
						)
					)
				)
			)
			(pin bidirectional line
				(at -38.1 5.08 0)
				(length 7.62)
				(name "PC9/ADDR9"
					(effects
						(font
							(size 1.27 1.27)
						)
					)
				)
				(number "45"
					(effects
						(font
							(size 1.27 1.27)
						)
					)
				)
			)
			(pin bidirectional line
				(at -38.1 2.54 0)
				(length 7.62)
				(name "PC10/ADDR10"
					(effects
						(font
							(size 1.27 1.27)
						)
					)
				)
				(number "46"
					(effects
						(font
							(size 1.27 1.27)
						)
					)
				)
			)
			(pin bidirectional line
				(at -38.1 0 0)
				(length 7.62)
				(name "PC11/ADDR11"
					(effects
						(font
							(size 1.27 1.27)
						)
					)
				)
				(number "47"
					(effects
						(font
							(size 1.27 1.27)
						)
					)
				)
			)
			(pin bidirectional inverted
				(at -38.1 78.74 0)
				(length 7.62)
				(name "RESET"
					(effects
						(font
							(size 1.27 1.27)
						)
					)
				)
				(number "48"
					(effects
						(font
							(size 1.27 1.27)
						)
					)
				)
			)
			(pin power_in line
				(at -15.24 -116.84 90)
				(length 7.62)
				(name "VssX"
					(effects
						(font
							(size 1.27 1.27)
						)
					)
				)
				(number "49"
					(effects
						(font
							(size 1.27 1.27)
						)
					)
				)
			)
			(pin bidirectional line
				(at 35.56 -40.64 180)
				(length 7.62)
				(name "PG10/CANTXD_D"
					(effects
						(font
							(size 1.27 1.27)
						)
					)
				)
				(number "5"
					(effects
						(font
							(size 1.27 1.27)
						)
					)
				)
			)
			(pin power_in line
				(at 5.08 96.52 270)
				(length 7.62)
				(name "VddX"
					(effects
						(font
							(size 1.27 1.27)
						)
					)
				)
				(number "50"
					(effects
						(font
							(size 1.27 1.27)
						)
					)
				)
			)
			(pin bidirectional line
				(at 35.56 -45.72 180)
				(length 7.62)
				(name "PG12/RXD_D"
					(effects
						(font
							(size 1.27 1.27)
						)
					)
				)
				(number "51"
					(effects
						(font
							(size 1.27 1.27)
						)
					)
				)
			)
			(pin bidirectional line
				(at 35.56 -48.26 180)
				(length 7.62)
				(name "PG13/TXD_D"
					(effects
						(font
							(size 1.27 1.27)
						)
					)
				)
				(number "52"
					(effects
						(font
							(size 1.27 1.27)
						)
					)
				)
			)
			(pin passive line
				(at -7.62 96.52 270)
				(length 7.62)
				(name "Vdd2.5"
					(effects
						(font
							(size 1.27 1.27)
						)
					)
				)
				(number "53"
					(effects
						(font
							(size 1.27 1.27)
						)
					)
				)
			)
			(pin power_in line
				(at 2.54 -116.84 90)
				(length 7.62)
				(name "Vss2.5"
					(effects
						(font
							(size 1.27 1.27)
						)
					)
				)
				(number "54"
					(effects
						(font
							(size 1.27 1.27)
						)
					)
				)
			)
			(pin power_in line
				(at 10.16 -116.84 90)
				(length 7.62)
				(name "VssR"
					(effects
						(font
							(size 1.27 1.27)
						)
					)
				)
				(number "55"
					(effects
						(font
							(size 1.27 1.27)
						)
					)
				)
			)
			(pin power_in line
				(at 17.78 96.52 270)
				(length 7.62)
				(name "VddR"
					(effects
						(font
							(size 1.27 1.27)
						)
					)
				)
				(number "56"
					(effects
						(font
							(size 1.27 1.27)
						)
					)
				)
			)
			(pin passive line
				(at -15.24 96.52 270)
				(length 7.62)
				(name "VddPLL"
					(effects
						(font
							(size 1.27 1.27)
						)
					)
				)
				(number "57"
					(effects
						(font
							(size 1.27 1.27)
						)
					)
				)
			)
			(pin bidirectional line
				(at -20.32 96.52 270)
				(length 7.62)
				(name "XFC"
					(effects
						(font
							(size 1.27 1.27)
						)
					)
				)
				(number "58"
					(effects
						(font
							(size 1.27 1.27)
						)
					)
				)
			)
			(pin passive line
				(at 5.08 -116.84 90)
				(length 7.62)
				(name "VssPLL"
					(effects
						(font
							(size 1.27 1.27)
						)
					)
				)
				(number "59"
					(effects
						(font
							(size 1.27 1.27)
						)
					)
				)
			)
			(pin bidirectional line
				(at 35.56 -43.18 180)
				(length 7.62)
				(name "PG11/CANRXD_D"
					(effects
						(font
							(size 1.27 1.27)
						)
					)
				)
				(number "6"
					(effects
						(font
							(size 1.27 1.27)
						)
					)
				)
			)
			(pin input line
				(at -38.1 83.82 0)
				(length 7.62)
				(name "EXTAL"
					(effects
						(font
							(size 1.27 1.27)
						)
					)
				)
				(number "60"
					(effects
						(font
							(size 1.27 1.27)
						)
					)
				)
			)
			(pin output line
				(at -38.1 81.28 0)
				(length 7.62)
				(name "XTAL"
					(effects
						(font
							(size 1.27 1.27)
						)
					)
				)
				(number "61"
					(effects
						(font
							(size 1.27 1.27)
						)
					)
				)
			)
			(pin power_in line
				(at -12.7 -116.84 90)
				(length 7.62)
				(name "VssX"
					(effects
						(font
							(size 1.27 1.27)
						)
					)
				)
				(number "63"
					(effects
						(font
							(size 1.27 1.27)
						)
					)
				)
			)
			(pin power_in line
				(at 10.16 96.52 270)
				(length 7.62)
				(name "VddX"
					(effects
						(font
							(size 1.27 1.27)
						)
					)
				)
				(number "64"
					(effects
						(font
							(size 1.27 1.27)
						)
					)
				)
			)
			(pin bidirectional line
				(at -38.1 33.02 0)
				(length 7.62)
				(name "PA15/DATA15"
					(effects
						(font
							(size 1.27 1.27)
						)
					)
				)
				(number "65"
					(effects
						(font
							(size 1.27 1.27)
						)
					)
				)
			)
			(pin bidirectional line
				(at -38.1 35.56 0)
				(length 7.62)
				(name "PA14/DATA14"
					(effects
						(font
							(size 1.27 1.27)
						)
					)
				)
				(number "66"
					(effects
						(font
							(size 1.27 1.27)
						)
					)
				)
			)
			(pin bidirectional line
				(at -38.1 38.1 0)
				(length 7.62)
				(name "PA13/DATA13"
					(effects
						(font
							(size 1.27 1.27)
						)
					)
				)
				(number "67"
					(effects
						(font
							(size 1.27 1.27)
						)
					)
				)
			)
			(pin bidirectional line
				(at -38.1 -35.56 0)
				(length 7.62)
				(name "PD11/OE"
					(effects
						(font
							(size 1.27 1.27)
						)
					)
				)
				(number "68"
					(effects
						(font
							(size 1.27 1.27)
						)
					)
				)
			)
			(pin bidirectional line
				(at 35.56 -106.68 180)
				(length 7.62)
				(name "PD12/CS2"
					(effects
						(font
							(size 1.27 1.27)
						)
					)
				)
				(number "69"
					(effects
						(font
							(size 1.27 1.27)
						)
					)
				)
			)
			(pin bidirectional line
				(at 35.56 -30.48 180)
				(length 7.62)
				(name "PG6/CANTXD_B"
					(effects
						(font
							(size 1.27 1.27)
						)
					)
				)
				(number "7"
					(effects
						(font
							(size 1.27 1.27)
						)
					)
				)
			)
			(pin bidirectional line
				(at -38.1 -96.52 0)
				(length 7.62)
				(name "PD0/BS0/MODB"
					(effects
						(font
							(size 1.27 1.27)
						)
					)
				)
				(number "70"
					(effects
						(font
							(size 1.27 1.27)
						)
					)
				)
			)
			(pin bidirectional line
				(at -38.1 -99.06 0)
				(length 7.62)
				(name "PD1/BS1/MODA"
					(effects
						(font
							(size 1.27 1.27)
						)
					)
				)
				(number "71"
					(effects
						(font
							(size 1.27 1.27)
						)
					)
				)
			)
			(pin bidirectional line
				(at 35.56 -81.28 180)
				(length 7.62)
				(name "PB9/PCS0_B/SS_B"
					(effects
						(font
							(size 1.27 1.27)
						)
					)
				)
				(number "72"
					(effects
						(font
							(size 1.27 1.27)
						)
					)
				)
			)
			(pin bidirectional line
				(at 35.56 -83.82 180)
				(length 7.62)
				(name "PB10/PCS5_B/PCSS_B"
					(effects
						(font
							(size 1.27 1.27)
						)
					)
				)
				(number "73"
					(effects
						(font
							(size 1.27 1.27)
						)
					)
				)
			)
			(pin bidirectional line
				(at 35.56 -86.36 180)
				(length 7.62)
				(name "PB11/PCS2_B"
					(effects
						(font
							(size 1.27 1.27)
						)
					)
				)
				(number "74"
					(effects
						(font
							(size 1.27 1.27)
						)
					)
				)
			)
			(pin bidirectional line
				(at 35.56 -88.9 180)
				(length 7.62)
				(name "PB12/PCS1_B"
					(effects
						(font
							(size 1.27 1.27)
						)
					)
				)
				(number "75"
					(effects
						(font
							(size 1.27 1.27)
						)
					)
				)
			)
			(pin bidirectional line
				(at 35.56 -91.44 180)
				(length 7.62)
				(name "PB13/PCSSCK_B"
					(effects
						(font
							(size 1.27 1.27)
						)
					)
				)
				(number "76"
					(effects
						(font
							(size 1.27 1.27)
						)
					)
				)
			)
			(pin bidirectional line
				(at 35.56 -93.98 180)
				(length 7.62)
				(name "PB14/SOUT_B"
					(effects
						(font
							(size 1.27 1.27)
						)
					)
				)
				(number "77"
					(effects
						(font
							(size 1.27 1.27)
						)
					)
				)
			)
			(pin bidirectional line
				(at 35.56 -96.52 180)
				(length 7.62)
				(name "PB15/SIN_B"
					(effects
						(font
							(size 1.27 1.27)
						)
					)
				)
				(number "78"
					(effects
						(font
							(size 1.27 1.27)
						)
					)
				)
			)
			(pin bidirectional line
				(at -38.1 -30.48 0)
				(length 7.62)
				(name "TA/AS"
					(effects
						(font
							(size 1.27 1.27)
						)
					)
				)
				(number "79"
					(effects
						(font
							(size 1.27 1.27)
						)
					)
				)
			)
			(pin bidirectional line
				(at 35.56 -33.02 180)
				(length 7.62)
				(name "PG7/CANRXD_B"
					(effects
						(font
							(size 1.27 1.27)
						)
					)
				)
				(number "8"
					(effects
						(font
							(size 1.27 1.27)
						)
					)
				)
			)
			(pin bidirectional line
				(at -38.1 -38.1 0)
				(length 7.62)
				(name "PD2/CLKOUT/XCLKS"
					(effects
						(font
							(size 1.27 1.27)
						)
					)
				)
				(number "80"
					(effects
						(font
							(size 1.27 1.27)
						)
					)
				)
			)
			(pin bidirectional line
				(at -38.1 -88.9 0)
				(length 7.62)
				(name "PD3/XIRQ"
					(effects
						(font
							(size 1.27 1.27)
						)
					)
				)
				(number "81"
					(effects
						(font
							(size 1.27 1.27)
						)
					)
				)
			)
			(pin bidirectional line
				(at -38.1 -91.44 0)
				(length 7.62)
				(name "PD4/IRQ"
					(effects
						(font
							(size 1.27 1.27)
						)
					)
				)
				(number "82"
					(effects
						(font
							(size 1.27 1.27)
						)
					)
				)
			)
			(pin bidirectional line
				(at 35.56 -104.14 180)
				(length 7.62)
				(name "PD13/CS1"
					(effects
						(font
							(size 1.27 1.27)
						)
					)
				)
				(number "83"
					(effects
						(font
							(size 1.27 1.27)
						)
					)
				)
			)
			(pin bidirectional line
				(at 35.56 -101.6 180)
				(length 7.62)
				(name "PD14/CS0"
					(effects
						(font
							(size 1.27 1.27)
						)
					)
				)
				(number "84"
					(effects
						(font
							(size 1.27 1.27)
						)
					)
				)
			)
			(pin bidirectional line
				(at -38.1 -33.02 0)
				(length 7.62)
				(name "PD15/R/W"
					(effects
						(font
							(size 1.27 1.27)
						)
					)
				)
				(number "85"
					(effects
						(font
							(size 1.27 1.27)
						)
					)
				)
			)
			(pin power_in line
				(at -10.16 -116.84 90)
				(length 7.62)
				(name "VssX"
					(effects
						(font
							(size 1.27 1.27)
						)
					)
				)
				(number "86"
					(effects
						(font
							(size 1.27 1.27)
						)
					)
				)
			)
			(pin power_in line
				(at 7.62 96.52 270)
				(length 7.62)
				(name "VddX"
					(effects
						(font
							(size 1.27 1.27)
						)
					)
				)
				(number "87"
					(effects
						(font
							(size 1.27 1.27)
						)
					)
				)
			)
			(pin bidirectional line
				(at -38.1 -2.54 0)
				(length 7.62)
				(name "PC12/ADDR12"
					(effects
						(font
							(size 1.27 1.27)
						)
					)
				)
				(number "88"
					(effects
						(font
							(size 1.27 1.27)
						)
					)
				)
			)
			(pin bidirectional line
				(at -38.1 -5.08 0)
				(length 7.62)
				(name "PC13/ADDR13"
					(effects
						(font
							(size 1.27 1.27)
						)
					)
				)
				(number "89"
					(effects
						(font
							(size 1.27 1.27)
						)
					)
				)
			)
			(pin bidirectional line
				(at -38.1 27.94 0)
				(length 7.62)
				(name "PC0/ADDR0"
					(effects
						(font
							(size 1.27 1.27)
						)
					)
				)
				(number "9"
					(effects
						(font
							(size 1.27 1.27)
						)
					)
				)
			)
			(pin bidirectional line
				(at -38.1 -7.62 0)
				(length 7.62)
				(name "PC14/ADDR14"
					(effects
						(font
							(size 1.27 1.27)
						)
					)
				)
				(number "90"
					(effects
						(font
							(size 1.27 1.27)
						)
					)
				)
			)
			(pin bidirectional line
				(at -38.1 -10.16 0)
				(length 7.62)
				(name "PC15/ADDR15"
					(effects
						(font
							(size 1.27 1.27)
						)
					)
				)
				(number "91"
					(effects
						(font
							(size 1.27 1.27)
						)
					)
				)
			)
			(pin bidirectional line
				(at -38.1 -12.7 0)
				(length 7.62)
				(name "PD5/ADDR16"
					(effects
						(font
							(size 1.27 1.27)
						)
					)
				)
				(number "92"
					(effects
						(font
							(size 1.27 1.27)
						)
					)
				)
			)
			(pin bidirectional line
				(at -38.1 40.64 0)
				(length 7.62)
				(name "PA12/DATA12"
					(effects
						(font
							(size 1.27 1.27)
						)
					)
				)
				(number "93"
					(effects
						(font
							(size 1.27 1.27)
						)
					)
				)
			)
			(pin bidirectional line
				(at -38.1 43.18 0)
				(length 7.62)
				(name "PA11/DATA11"
					(effects
						(font
							(size 1.27 1.27)
						)
					)
				)
				(number "94"
					(effects
						(font
							(size 1.27 1.27)
						)
					)
				)
			)
			(pin bidirectional line
				(at -38.1 45.72 0)
				(length 7.62)
				(name "PA10/DATA10"
					(effects
						(font
							(size 1.27 1.27)
						)
					)
				)
				(number "95"
					(effects
						(font
							(size 1.27 1.27)
						)
					)
				)
			)
			(pin bidirectional line
				(at -38.1 48.26 0)
				(length 7.62)
				(name "PA9/DATA9"
					(effects
						(font
							(size 1.27 1.27)
						)
					)
				)
				(number "96"
					(effects
						(font
							(size 1.27 1.27)
						)
					)
				)
			)
			(pin bidirectional line
				(at -38.1 50.8 0)
				(length 7.62)
				(name "PA8/DATA8"
					(effects
						(font
							(size 1.27 1.27)
						)
					)
				)
				(number "97"
					(effects
						(font
							(size 1.27 1.27)
						)
					)
				)
			)
			(pin bidirectional line
				(at -38.1 53.34 0)
				(length 7.62)
				(name "PA7/DATA7"
					(effects
						(font
							(size 1.27 1.27)
						)
					)
				)
				(number "98"
					(effects
						(font
							(size 1.27 1.27)
						)
					)
				)
			)
			(pin bidirectional line
				(at 35.56 71.12 180)
				(length 7.62)
				(name "PE0/MCKO'/AN0_A"
					(effects
						(font
							(size 1.27 1.27)
						)
					)
				)
				(number "99"
					(effects
						(font
							(size 1.27 1.27)
						)
					)
				)
			)
		)
	)
)