(kicad_symbol_lib
	(version 20231120)
	(generator "kicad_symbol_editor")
	(generator_version "8.0")
	(symbol "DA14691"
		(exclude_from_sim no)
		(in_bom yes)
		(on_board yes)
		(property "Reference" "U"
			(at 0 2.54 0)
			(effects
				(font
					(size 1.27 1.27)
				)
			)
		)
		(property "Value" "DA14691"
			(at 0 0 0)
			(effects
				(font
					(size 1.27 1.27)
				)
			)
		)
		(property "Footprint" "Package_BGA:VFBGA-86_6x6mm_Layout10x10_P0.55mm_Ball0.25mm_Pad0.2mm"
			(at 0 69.85 0)
			(effects
				(font
					(size 1.27 1.27)
				)
				(hide yes)
			)
		)
		(property "Datasheet" "https://www.dialog-semiconductor.com/sites/default/files/da1469x_datasheet_3v1.pdf"
			(at -11.43 83.82 0)
			(effects
				(font
					(size 1.27 1.27)
				)
				(hide yes)
			)
		)
		(property "Description" "Multi-core BLE 5.1 SoC series, 96-MHz/32-bit ARM Cortex-M33, 128 kB ROM, 384 kB SRAM, 4 kB OTP Memory, 16 kB cache SRAM, VFBGA-86"
			(at 0 0 0)
			(effects
				(font
					(size 1.27 1.27)
				)
				(hide yes)
			)
		)
		(property "ki_keywords" "BLE MCU"
			(at 0 0 0)
			(effects
				(font
					(size 1.27 1.27)
				)
				(hide yes)
			)
		)
		(property "ki_fp_filters" "VFBGA*6x6mm*Layout10x10*P0.55mm*"
			(at 0 0 0)
			(effects
				(font
					(size 1.27 1.27)
				)
				(hide yes)
			)
		)
		(symbol "DA14691_1_1"
			(rectangle
				(start -21.59 49.53)
				(end 21.59 -49.53)
				(stroke
					(width 0.254)
					(type default)
				)
				(fill
					(type background)
				)
			)
			(pin output line
				(at -25.4 30.48 0)
				(length 3.81)
				(name "QSPIF_CLK"
					(effects
						(font
							(size 1.27 1.27)
						)
					)
				)
				(number "A1"
					(effects
						(font
							(size 1.27 1.27)
						)
					)
				)
			)
			(pin passive line
				(at 7.62 -53.34 90)
				(length 3.81) hide
				(name "RF_GND"
					(effects
						(font
							(size 1.27 1.27)
						)
					)
				)
				(number "A10"
					(effects
						(font
							(size 1.27 1.27)
						)
					)
				)
			)
			(pin bidirectional line
				(at -25.4 40.64 0)
				(length 3.81)
				(name "QSPIF_D0"
					(effects
						(font
							(size 1.27 1.27)
						)
					)
				)
				(number "A2"
					(effects
						(font
							(size 1.27 1.27)
						)
					)
				)
			)
			(pin bidirectional line
				(at -25.4 -30.48 0)
				(length 3.81)
				(name "P0_10/M33_SWDIO"
					(effects
						(font
							(size 1.27 1.27)
						)
					)
				)
				(number "A3"
					(effects
						(font
							(size 1.27 1.27)
						)
					)
				)
			)
			(pin bidirectional line
				(at -25.4 -35.56 0)
				(length 3.81)
				(name "P0_12/CMAC_SWDIO"
					(effects
						(font
							(size 1.27 1.27)
						)
					)
				)
				(number "A4"
					(effects
						(font
							(size 1.27 1.27)
						)
					)
				)
			)
			(pin power_in line
				(at 2.54 53.34 270)
				(length 3.81)
				(name "VSUP_RF"
					(effects
						(font
							(size 1.27 1.27)
						)
					)
				)
				(number "A5"
					(effects
						(font
							(size 1.27 1.27)
						)
					)
				)
			)
			(pin passive line
				(at 7.62 -53.34 90)
				(length 3.81) hide
				(name "RF_GND"
					(effects
						(font
							(size 1.27 1.27)
						)
					)
				)
				(number "A6"
					(effects
						(font
							(size 1.27 1.27)
						)
					)
				)
			)
			(pin power_in line
				(at 7.62 -53.34 90)
				(length 3.81)
				(name "RF_GND"
					(effects
						(font
							(size 1.27 1.27)
						)
					)
				)
				(number "A7"
					(effects
						(font
							(size 1.27 1.27)
						)
					)
				)
			)
			(pin bidirectional line
				(at -25.4 45.72 0)
				(length 3.81)
				(name "RFIOP"
					(effects
						(font
							(size 1.27 1.27)
						)
					)
				)
				(number "A8"
					(effects
						(font
							(size 1.27 1.27)
						)
					)
				)
			)
			(pin passive line
				(at 7.62 -53.34 90)
				(length 3.81) hide
				(name "RF_GND"
					(effects
						(font
							(size 1.27 1.27)
						)
					)
				)
				(number "A9"
					(effects
						(font
							(size 1.27 1.27)
						)
					)
				)
			)
			(pin output line
				(at -25.4 27.94 0)
				(length 3.81)
				(name "QSPIF_CS"
					(effects
						(font
							(size 1.27 1.27)
						)
					)
				)
				(number "B1"
					(effects
						(font
							(size 1.27 1.27)
						)
					)
				)
			)
			(pin bidirectional line
				(at 25.4 30.48 180)
				(length 3.81)
				(name "P0_06"
					(effects
						(font
							(size 1.27 1.27)
						)
					)
				)
				(number "B10"
					(effects
						(font
							(size 1.27 1.27)
						)
					)
				)
			)
			(pin bidirectional line
				(at -25.4 33.02 0)
				(length 3.81)
				(name "QSPIF_D3"
					(effects
						(font
							(size 1.27 1.27)
						)
					)
				)
				(number "B2"
					(effects
						(font
							(size 1.27 1.27)
						)
					)
				)
			)
			(pin bidirectional line
				(at -25.4 -33.02 0)
				(length 3.81)
				(name "P0_11/M33_SWCLK"
					(effects
						(font
							(size 1.27 1.27)
						)
					)
				)
				(number "B3"
					(effects
						(font
							(size 1.27 1.27)
						)
					)
				)
			)
			(pin bidirectional line
				(at -25.4 -38.1 0)
				(length 3.81)
				(name "P0_13/CMAC_SWCLK"
					(effects
						(font
							(size 1.27 1.27)
						)
					)
				)
				(number "B4"
					(effects
						(font
							(size 1.27 1.27)
						)
					)
				)
			)
			(pin bidirectional line
				(at 25.4 22.86 180)
				(length 3.81)
				(name "P0_09"
					(effects
						(font
							(size 1.27 1.27)
						)
					)
				)
				(number "B5"
					(effects
						(font
							(size 1.27 1.27)
						)
					)
				)
			)
			(pin passive line
				(at 7.62 -53.34 90)
				(length 3.81) hide
				(name "RF_GND"
					(effects
						(font
							(size 1.27 1.27)
						)
					)
				)
				(number "B7"
					(effects
						(font
							(size 1.27 1.27)
						)
					)
				)
			)
			(pin input line
				(at -25.4 -27.94 0)
				(length 3.81)
				(name "~{RESET}"
					(effects
						(font
							(size 1.27 1.27)
						)
					)
				)
				(number "B8"
					(effects
						(font
							(size 1.27 1.27)
						)
					)
				)
			)
			(pin bidirectional line
				(at 25.4 27.94 180)
				(length 3.81)
				(name "P0_07"
					(effects
						(font
							(size 1.27 1.27)
						)
					)
				)
				(number "B9"
					(effects
						(font
							(size 1.27 1.27)
						)
					)
				)
			)
			(pin bidirectional line
				(at -25.4 35.56 0)
				(length 3.81)
				(name "QSPIF_D2"
					(effects
						(font
							(size 1.27 1.27)
						)
					)
				)
				(number "C1"
					(effects
						(font
							(size 1.27 1.27)
						)
					)
				)
			)
			(pin bidirectional line
				(at 25.4 -2.54 180)
				(length 3.81)
				(name "P0_27"
					(effects
						(font
							(size 1.27 1.27)
						)
					)
				)
				(number "C10"
					(effects
						(font
							(size 1.27 1.27)
						)
					)
				)
			)
			(pin bidirectional line
				(at -25.4 38.1 0)
				(length 3.81)
				(name "QSPIF_D1"
					(effects
						(font
							(size 1.27 1.27)
						)
					)
				)
				(number "C2"
					(effects
						(font
							(size 1.27 1.27)
						)
					)
				)
			)
			(pin bidirectional line
				(at 25.4 -10.16 180)
				(length 3.81)
				(name "P0_30"
					(effects
						(font
							(size 1.27 1.27)
						)
					)
				)
				(number "C3"
					(effects
						(font
							(size 1.27 1.27)
						)
					)
				)
			)
			(pin bidirectional line
				(at 25.4 7.62 180)
				(length 3.81)
				(name "P0_21"
					(effects
						(font
							(size 1.27 1.27)
						)
					)
				)
				(number "C4"
					(effects
						(font
							(size 1.27 1.27)
						)
					)
				)
			)
			(pin bidirectional line
				(at 25.4 12.7 180)
				(length 3.81)
				(name "P0_19"
					(effects
						(font
							(size 1.27 1.27)
						)
					)
				)
				(number "C6"
					(effects
						(font
							(size 1.27 1.27)
						)
					)
				)
			)
			(pin bidirectional line
				(at 25.4 17.78 180)
				(length 3.81)
				(name "P0_17"
					(effects
						(font
							(size 1.27 1.27)
						)
					)
				)
				(number "C8"
					(effects
						(font
							(size 1.27 1.27)
						)
					)
				)
			)
			(pin bidirectional line
				(at 25.4 20.32 180)
				(length 3.81)
				(name "P0_16"
					(effects
						(font
							(size 1.27 1.27)
						)
					)
				)
				(number "C9"
					(effects
						(font
							(size 1.27 1.27)
						)
					)
				)
			)
			(pin bidirectional line
				(at 25.4 33.02 180)
				(length 3.81)
				(name "P0_05"
					(effects
						(font
							(size 1.27 1.27)
						)
					)
				)
				(number "D1"
					(effects
						(font
							(size 1.27 1.27)
						)
					)
				)
			)
			(pin passive line
				(at 7.62 -53.34 90)
				(length 3.81) hide
				(name "RF_GND"
					(effects
						(font
							(size 1.27 1.27)
						)
					)
				)
				(number "D10"
					(effects
						(font
							(size 1.27 1.27)
						)
					)
				)
			)
			(pin bidirectional line
				(at 25.4 45.72 180)
				(length 3.81)
				(name "P0_00"
					(effects
						(font
							(size 1.27 1.27)
						)
					)
				)
				(number "D2"
					(effects
						(font
							(size 1.27 1.27)
						)
					)
				)
			)
			(pin bidirectional line
				(at 25.4 -12.7 180)
				(length 3.81)
				(name "P0_31"
					(effects
						(font
							(size 1.27 1.27)
						)
					)
				)
				(number "D3"
					(effects
						(font
							(size 1.27 1.27)
						)
					)
				)
			)
			(pin bidirectional line
				(at 25.4 -7.62 180)
				(length 3.81)
				(name "P0_29"
					(effects
						(font
							(size 1.27 1.27)
						)
					)
				)
				(number "D5"
					(effects
						(font
							(size 1.27 1.27)
						)
					)
				)
			)
			(pin bidirectional line
				(at 25.4 25.4 180)
				(length 3.81)
				(name "P0_08"
					(effects
						(font
							(size 1.27 1.27)
						)
					)
				)
				(number "D6"
					(effects
						(font
							(size 1.27 1.27)
						)
					)
				)
			)
			(pin passive line
				(at 7.62 -53.34 90)
				(length 3.81) hide
				(name "RF_GND"
					(effects
						(font
							(size 1.27 1.27)
						)
					)
				)
				(number "D9"
					(effects
						(font
							(size 1.27 1.27)
						)
					)
				)
			)
			(pin bidirectional line
				(at 25.4 35.56 180)
				(length 3.81)
				(name "P0_04"
					(effects
						(font
							(size 1.27 1.27)
						)
					)
				)
				(number "E1"
					(effects
						(font
							(size 1.27 1.27)
						)
					)
				)
			)
			(pin passive line
				(at 2.54 -53.34 90)
				(length 3.81)
				(name "XTAL32M_GND"
					(effects
						(font
							(size 1.27 1.27)
						)
					)
				)
				(number "E10"
					(effects
						(font
							(size 1.27 1.27)
						)
					)
				)
			)
			(pin bidirectional line
				(at 25.4 38.1 180)
				(length 3.81)
				(name "P0_03"
					(effects
						(font
							(size 1.27 1.27)
						)
					)
				)
				(number "E2"
					(effects
						(font
							(size 1.27 1.27)
						)
					)
				)
			)
			(pin bidirectional line
				(at 25.4 -30.48 180)
				(length 3.81)
				(name "P1_05"
					(effects
						(font
							(size 1.27 1.27)
						)
					)
				)
				(number "E4"
					(effects
						(font
							(size 1.27 1.27)
						)
					)
				)
			)
			(pin bidirectional line
				(at 25.4 -25.4 180)
				(length 3.81)
				(name "P1_03"
					(effects
						(font
							(size 1.27 1.27)
						)
					)
				)
				(number "E6"
					(effects
						(font
							(size 1.27 1.27)
						)
					)
				)
			)
			(pin bidirectional line
				(at 25.4 -20.32 180)
				(length 3.81)
				(name "P1_01"
					(effects
						(font
							(size 1.27 1.27)
						)
					)
				)
				(number "E8"
					(effects
						(font
							(size 1.27 1.27)
						)
					)
				)
			)
			(pin bidirectional line
				(at 25.4 -17.78 180)
				(length 3.81)
				(name "P1_00"
					(effects
						(font
							(size 1.27 1.27)
						)
					)
				)
				(number "E9"
					(effects
						(font
							(size 1.27 1.27)
						)
					)
				)
			)
			(pin bidirectional line
				(at 25.4 40.64 180)
				(length 3.81)
				(name "P0_02"
					(effects
						(font
							(size 1.27 1.27)
						)
					)
				)
				(number "F1"
					(effects
						(font
							(size 1.27 1.27)
						)
					)
				)
			)
			(pin output line
				(at -25.4 -17.78 0)
				(length 3.81)
				(name "XTAL32M_M"
					(effects
						(font
							(size 1.27 1.27)
						)
					)
				)
				(number "F10"
					(effects
						(font
							(size 1.27 1.27)
						)
					)
				)
			)
			(pin bidirectional line
				(at 25.4 43.18 180)
				(length 3.81)
				(name "P0_01"
					(effects
						(font
							(size 1.27 1.27)
						)
					)
				)
				(number "F2"
					(effects
						(font
							(size 1.27 1.27)
						)
					)
				)
			)
			(pin power_in line
				(at 0 -53.34 90)
				(length 3.81)
				(name "VSSIOQ"
					(effects
						(font
							(size 1.27 1.27)
						)
					)
				)
				(number "F3"
					(effects
						(font
							(size 1.27 1.27)
						)
					)
				)
			)
			(pin passive line
				(at -5.08 -53.34 90)
				(length 3.81) hide
				(name "DGND"
					(effects
						(font
							(size 1.27 1.27)
						)
					)
				)
				(number "F4"
					(effects
						(font
							(size 1.27 1.27)
						)
					)
				)
			)
			(pin power_in line
				(at -2.54 -53.34 90)
				(length 3.81)
				(name "AGND"
					(effects
						(font
							(size 1.27 1.27)
						)
					)
				)
				(number "F5"
					(effects
						(font
							(size 1.27 1.27)
						)
					)
				)
			)
			(pin bidirectional line
				(at 25.4 -35.56 180)
				(length 3.81)
				(name "P1_07"
					(effects
						(font
							(size 1.27 1.27)
						)
					)
				)
				(number "F7"
					(effects
						(font
							(size 1.27 1.27)
						)
					)
				)
			)
			(pin input line
				(at -25.4 -20.32 0)
				(length 3.81)
				(name "XTAL32M_P"
					(effects
						(font
							(size 1.27 1.27)
						)
					)
				)
				(number "F9"
					(effects
						(font
							(size 1.27 1.27)
						)
					)
				)
			)
			(pin power_out line
				(at -12.7 53.34 270)
				(length 3.81)
				(name "V18F"
					(effects
						(font
							(size 1.27 1.27)
						)
					)
				)
				(number "G1"
					(effects
						(font
							(size 1.27 1.27)
						)
					)
				)
			)
			(pin bidirectional line
				(at 25.4 15.24 180)
				(length 3.81)
				(name "P0_18"
					(effects
						(font
							(size 1.27 1.27)
						)
					)
				)
				(number "G10"
					(effects
						(font
							(size 1.27 1.27)
						)
					)
				)
			)
			(pin power_out line
				(at -10.16 53.34 270)
				(length 3.81)
				(name "V18P"
					(effects
						(font
							(size 1.27 1.27)
						)
					)
				)
				(number "G2"
					(effects
						(font
							(size 1.27 1.27)
						)
					)
				)
			)
			(pin power_in line
				(at -5.08 -53.34 90)
				(length 3.81)
				(name "DGND"
					(effects
						(font
							(size 1.27 1.27)
						)
					)
				)
				(number "G3"
					(effects
						(font
							(size 1.27 1.27)
						)
					)
				)
			)
			(pin passive line
				(at -5.08 -53.34 90)
				(length 3.81) hide
				(name "DGND"
					(effects
						(font
							(size 1.27 1.27)
						)
					)
				)
				(number "G4"
					(effects
						(font
							(size 1.27 1.27)
						)
					)
				)
			)
			(pin passive line
				(at -2.54 -53.34 90)
				(length 3.81) hide
				(name "AGND"
					(effects
						(font
							(size 1.27 1.27)
						)
					)
				)
				(number "G5"
					(effects
						(font
							(size 1.27 1.27)
						)
					)
				)
			)
			(pin bidirectional line
				(at 25.4 -45.72 180)
				(length 3.81)
				(name "P1_11"
					(effects
						(font
							(size 1.27 1.27)
						)
					)
				)
				(number "G6"
					(effects
						(font
							(size 1.27 1.27)
						)
					)
				)
			)
			(pin bidirectional line
				(at 25.4 10.16 180)
				(length 3.81)
				(name "P0_20"
					(effects
						(font
							(size 1.27 1.27)
						)
					)
				)
				(number "G8"
					(effects
						(font
							(size 1.27 1.27)
						)
					)
				)
			)
			(pin bidirectional line
				(at 25.4 -40.64 180)
				(length 3.81)
				(name "P1_09"
					(effects
						(font
							(size 1.27 1.27)
						)
					)
				)
				(number "G9"
					(effects
						(font
							(size 1.27 1.27)
						)
					)
				)
			)
			(pin power_out line
				(at 0 53.34 270)
				(length 3.81)
				(name "V14"
					(effects
						(font
							(size 1.27 1.27)
						)
					)
				)
				(number "H1"
					(effects
						(font
							(size 1.27 1.27)
						)
					)
				)
			)
			(pin bidirectional line
				(at -25.4 -10.16 0)
				(length 3.81)
				(name "P0_23/XTAL_32K_P"
					(effects
						(font
							(size 1.27 1.27)
						)
					)
				)
				(number "H10"
					(effects
						(font
							(size 1.27 1.27)
						)
					)
				)
			)
			(pin power_out line
				(at -2.54 53.34 270)
				(length 3.81)
				(name "V18"
					(effects
						(font
							(size 1.27 1.27)
						)
					)
				)
				(number "H2"
					(effects
						(font
							(size 1.27 1.27)
						)
					)
				)
			)
			(pin bidirectional line
				(at 25.4 -27.94 180)
				(length 3.81)
				(name "P1_04"
					(effects
						(font
							(size 1.27 1.27)
						)
					)
				)
				(number "H3"
					(effects
						(font
							(size 1.27 1.27)
						)
					)
				)
			)
			(pin bidirectional line
				(at 25.4 -5.08 180)
				(length 3.81)
				(name "P0_28"
					(effects
						(font
							(size 1.27 1.27)
						)
					)
				)
				(number "H5"
					(effects
						(font
							(size 1.27 1.27)
						)
					)
				)
			)
			(pin bidirectional line
				(at 25.4 0 180)
				(length 3.81)
				(name "P0_26"
					(effects
						(font
							(size 1.27 1.27)
						)
					)
				)
				(number "H7"
					(effects
						(font
							(size 1.27 1.27)
						)
					)
				)
			)
			(pin bidirectional line
				(at 25.4 2.54 180)
				(length 3.81)
				(name "P0_25"
					(effects
						(font
							(size 1.27 1.27)
						)
					)
				)
				(number "H8"
					(effects
						(font
							(size 1.27 1.27)
						)
					)
				)
			)
			(pin bidirectional line
				(at -25.4 -7.62 0)
				(length 3.81)
				(name "P0_22/XTAL_32K_M"
					(effects
						(font
							(size 1.27 1.27)
						)
					)
				)
				(number "H9"
					(effects
						(font
							(size 1.27 1.27)
						)
					)
				)
			)
			(pin passive line
				(at -25.4 2.54 0)
				(length 3.81)
				(name "LY"
					(effects
						(font
							(size 1.27 1.27)
						)
					)
				)
				(number "J1"
					(effects
						(font
							(size 1.27 1.27)
						)
					)
				)
			)
			(pin bidirectional line
				(at 25.4 -22.86 180)
				(length 3.81)
				(name "P1_02"
					(effects
						(font
							(size 1.27 1.27)
						)
					)
				)
				(number "J10"
					(effects
						(font
							(size 1.27 1.27)
						)
					)
				)
			)
			(pin power_out line
				(at 5.08 53.34 270)
				(length 3.81)
				(name "V12"
					(effects
						(font
							(size 1.27 1.27)
						)
					)
				)
				(number "J2"
					(effects
						(font
							(size 1.27 1.27)
						)
					)
				)
			)
			(pin passive line
				(at -7.62 -53.34 90)
				(length 3.81) hide
				(name "GND"
					(effects
						(font
							(size 1.27 1.27)
						)
					)
				)
				(number "J3"
					(effects
						(font
							(size 1.27 1.27)
						)
					)
				)
			)
			(pin no_connect line
				(at -20.32 -45.72 0)
				(length 3.81) hide
				(name "NC"
					(effects
						(font
							(size 1.27 1.27)
						)
					)
				)
				(number "J4"
					(effects
						(font
							(size 1.27 1.27)
						)
					)
				)
			)
			(pin power_in line
				(at -7.62 53.34 270)
				(length 3.81)
				(name "VBUS"
					(effects
						(font
							(size 1.27 1.27)
						)
					)
				)
				(number "J5"
					(effects
						(font
							(size 1.27 1.27)
						)
					)
				)
			)
			(pin power_out line
				(at -5.08 53.34 270)
				(length 3.81)
				(name "V30"
					(effects
						(font
							(size 1.27 1.27)
						)
					)
				)
				(number "J6"
					(effects
						(font
							(size 1.27 1.27)
						)
					)
				)
			)
			(pin bidirectional line
				(at 25.4 -38.1 180)
				(length 3.81)
				(name "P1_08"
					(effects
						(font
							(size 1.27 1.27)
						)
					)
				)
				(number "J7"
					(effects
						(font
							(size 1.27 1.27)
						)
					)
				)
			)
			(pin bidirectional line
				(at 25.4 -33.02 180)
				(length 3.81)
				(name "P1_06"
					(effects
						(font
							(size 1.27 1.27)
						)
					)
				)
				(number "J8"
					(effects
						(font
							(size 1.27 1.27)
						)
					)
				)
			)
			(pin bidirectional line
				(at 25.4 5.08 180)
				(length 3.81)
				(name "P0_24"
					(effects
						(font
							(size 1.27 1.27)
						)
					)
				)
				(number "J9"
					(effects
						(font
							(size 1.27 1.27)
						)
					)
				)
			)
			(pin passive line
				(at -25.4 0 0)
				(length 3.81)
				(name "LX"
					(effects
						(font
							(size 1.27 1.27)
						)
					)
				)
				(number "K1"
					(effects
						(font
							(size 1.27 1.27)
						)
					)
				)
			)
			(pin power_in line
				(at -7.62 -53.34 90)
				(length 3.81)
				(name "GND"
					(effects
						(font
							(size 1.27 1.27)
						)
					)
				)
				(number "K10"
					(effects
						(font
							(size 1.27 1.27)
						)
					)
				)
			)
			(pin power_out line
				(at 10.16 53.34 270)
				(length 3.81)
				(name "VBAT2"
					(effects
						(font
							(size 1.27 1.27)
						)
					)
				)
				(number "K2"
					(effects
						(font
							(size 1.27 1.27)
						)
					)
				)
			)
			(pin power_in line
				(at 5.08 -53.34 90)
				(length 3.81)
				(name "BUCK_GND"
					(effects
						(font
							(size 1.27 1.27)
						)
					)
				)
				(number "K3"
					(effects
						(font
							(size 1.27 1.27)
						)
					)
				)
			)
			(pin no_connect line
				(at -20.32 -48.26 0)
				(length 3.81) hide
				(name "NC"
					(effects
						(font
							(size 1.27 1.27)
						)
					)
				)
				(number "K4"
					(effects
						(font
							(size 1.27 1.27)
						)
					)
				)
			)
			(pin power_out line
				(at 12.7 53.34 270)
				(length 3.81)
				(name "VBAT1"
					(effects
						(font
							(size 1.27 1.27)
						)
					)
				)
				(number "K5"
					(effects
						(font
							(size 1.27 1.27)
						)
					)
				)
			)
			(pin bidirectional line
				(at -25.4 12.7 0)
				(length 3.81)
				(name "P0_14/USB_P"
					(effects
						(font
							(size 1.27 1.27)
						)
					)
				)
				(number "K6"
					(effects
						(font
							(size 1.27 1.27)
						)
					)
				)
			)
			(pin bidirectional line
				(at -25.4 10.16 0)
				(length 3.81)
				(name "P0_15/USB_M"
					(effects
						(font
							(size 1.27 1.27)
						)
					)
				)
				(number "K7"
					(effects
						(font
							(size 1.27 1.27)
						)
					)
				)
			)
			(pin bidirectional line
				(at 25.4 -43.18 180)
				(length 3.81)
				(name "P1_10"
					(effects
						(font
							(size 1.27 1.27)
						)
					)
				)
				(number "K8"
					(effects
						(font
							(size 1.27 1.27)
						)
					)
				)
			)
			(pin passive line
				(at -7.62 -53.34 90)
				(length 3.81) hide
				(name "GND"
					(effects
						(font
							(size 1.27 1.27)
						)
					)
				)
				(number "K9"
					(effects
						(font
							(size 1.27 1.27)
						)
					)
				)
			)
		)
	)
	(symbol "DA14695"
		(extends "DA14691")
		(property "Reference" "U"
			(at 0 2.54 0)
			(effects
				(font
					(size 1.27 1.27)
				)
			)
		)
		(property "Value" "DA14695"
			(at 0 0 0)
			(effects
				(font
					(size 1.27 1.27)
				)
			)
		)
		(property "Footprint" "Package_BGA:VFBGA-86_6x6mm_Layout10x10_P0.55mm_Ball0.25mm_Pad0.2mm"
			(at 0 69.85 0)
			(effects
				(font
					(size 1.27 1.27)
				)
				(hide yes)
			)
		)
		(property "Datasheet" "https://www.dialog-semiconductor.com/sites/default/files/da1469x_datasheet_3v1.pdf"
			(at -11.43 83.82 0)
			(effects
				(font
					(size 1.27 1.27)
				)
				(hide yes)
			)
		)
		(property "Description" "Multi-core BLE 5.1 Soc series, 96-MHz/32-bit ARM Cortex-M33, 128 kB ROM, 512 kB SRAM, 4 kB OTP Memory, 16 kB cache SRAM, VFBGA-86"
			(at 0 0 0)
			(effects
				(font
					(size 1.27 1.27)
				)
				(hide yes)
			)
		)
		(property "ki_keywords" "BLE MCU"
			(at 0 0 0)
			(effects
				(font
					(size 1.27 1.27)
				)
				(hide yes)
			)
		)
		(property "ki_fp_filters" "VFBGA*6x6mm*Layout10x10*P0.55mm*"
			(at 0 0 0)
			(effects
				(font
					(size 1.27 1.27)
				)
				(hide yes)
			)
		)
	)
)