(kicad_symbol_lib
	(version 20231120)
	(generator "kicad_symbol_editor")
	(generator_version "8.0")
	(symbol "XC18V01SO20"
		(pin_names
			(offset 1.016)
		)
		(exclude_from_sim no)
		(in_bom yes)
		(on_board yes)
		(property "Reference" "U"
			(at -8.8392 15.24 0)
			(effects
				(font
					(size 1.27 1.27)
				)
			)
		)
		(property "Value" "XC18V01SO20"
			(at 1.27 -15.1892 0)
			(effects
				(font
					(size 1.27 1.27)
				)
			)
		)
		(property "Footprint" ""
			(at 0 0 0)
			(effects
				(font
					(size 1.27 1.27)
				)
				(hide yes)
			)
		)
		(property "Datasheet" "xilinx/xc18v00proms.pdf"
			(at 0 0 0)
			(effects
				(font
					(size 1.27 1.27)
				)
				(hide yes)
			)
		)
		(property "Description" ""
			(at 0 0 0)
			(effects
				(font
					(size 1.27 1.27)
				)
				(hide yes)
			)
		)
		(symbol "XC18V01SO20_0_1"
			(rectangle
				(start -10.16 12.7)
				(end -10.16 12.7)
				(stroke
					(width 0)
					(type default)
				)
				(fill
					(type none)
				)
			)
			(rectangle
				(start -10.16 13.97)
				(end 10.16 -13.97)
				(stroke
					(width 0.254)
					(type default)
				)
				(fill
					(type background)
				)
			)
		)
		(symbol "XC18V01SO20_1_1"
			(pin output line
				(at 17.78 12.7 180)
				(length 7.62)
				(name "D0"
					(effects
						(font
							(size 1.27 1.27)
						)
					)
				)
				(number "1"
					(effects
						(font
							(size 1.27 1.27)
						)
					)
				)
			)
			(pin input line
				(at -17.78 -1.27 0)
				(length 7.62)
				(name "CE"
					(effects
						(font
							(size 1.27 1.27)
						)
					)
				)
				(number "10"
					(effects
						(font
							(size 1.27 1.27)
						)
					)
				)
			)
			(pin power_in line
				(at 17.78 -12.7 180)
				(length 7.62)
				(name "GND"
					(effects
						(font
							(size 1.27 1.27)
						)
					)
				)
				(number "11"
					(effects
						(font
							(size 1.27 1.27)
						)
					)
				)
			)
			(pin output line
				(at 17.78 -5.08 180)
				(length 7.62)
				(name "D7"
					(effects
						(font
							(size 1.27 1.27)
						)
					)
				)
				(number "12"
					(effects
						(font
							(size 1.27 1.27)
						)
					)
				)
			)
			(pin output line
				(at -17.78 -3.81 0)
				(length 7.62)
				(name "CEO"
					(effects
						(font
							(size 1.27 1.27)
						)
					)
				)
				(number "13"
					(effects
						(font
							(size 1.27 1.27)
						)
					)
				)
			)
			(pin output line
				(at 17.78 0 180)
				(length 7.62)
				(name "D5"
					(effects
						(font
							(size 1.27 1.27)
						)
					)
				)
				(number "14"
					(effects
						(font
							(size 1.27 1.27)
						)
					)
				)
			)
			(pin output line
				(at 17.78 5.08 180)
				(length 7.62)
				(name "D3"
					(effects
						(font
							(size 1.27 1.27)
						)
					)
				)
				(number "15"
					(effects
						(font
							(size 1.27 1.27)
						)
					)
				)
			)
			(pin output line
				(at 17.78 10.16 180)
				(length 7.62)
				(name "D1"
					(effects
						(font
							(size 1.27 1.27)
						)
					)
				)
				(number "16"
					(effects
						(font
							(size 1.27 1.27)
						)
					)
				)
			)
			(pin open_collector line
				(at -17.78 5.08 0)
				(length 7.62)
				(name "TDO"
					(effects
						(font
							(size 1.27 1.27)
						)
					)
				)
				(number "17"
					(effects
						(font
							(size 1.27 1.27)
						)
					)
				)
			)
			(pin power_in line
				(at -17.78 -10.16 0)
				(length 7.62)
				(name "VCC"
					(effects
						(font
							(size 1.27 1.27)
						)
					)
				)
				(number "18"
					(effects
						(font
							(size 1.27 1.27)
						)
					)
				)
			)
			(pin power_in line
				(at 17.78 -10.16 180)
				(length 7.62)
				(name "VCCO"
					(effects
						(font
							(size 1.27 1.27)
						)
					)
				)
				(number "19"
					(effects
						(font
							(size 1.27 1.27)
						)
					)
				)
			)
			(pin output line
				(at 17.78 7.62 180)
				(length 7.62)
				(name "D2"
					(effects
						(font
							(size 1.27 1.27)
						)
					)
				)
				(number "2"
					(effects
						(font
							(size 1.27 1.27)
						)
					)
				)
			)
			(pin power_in line
				(at -17.78 -12.7 0)
				(length 7.62)
				(name "VCC"
					(effects
						(font
							(size 1.27 1.27)
						)
					)
				)
				(number "20"
					(effects
						(font
							(size 1.27 1.27)
						)
					)
				)
			)
			(pin input clock
				(at -17.78 -6.35 0)
				(length 7.62)
				(name "CLK"
					(effects
						(font
							(size 1.27 1.27)
						)
					)
				)
				(number "3"
					(effects
						(font
							(size 1.27 1.27)
						)
					)
				)
			)
			(pin input line
				(at -17.78 7.62 0)
				(length 7.62)
				(name "TDI"
					(effects
						(font
							(size 1.27 1.27)
						)
					)
				)
				(number "4"
					(effects
						(font
							(size 1.27 1.27)
						)
					)
				)
			)
			(pin input line
				(at -17.78 12.7 0)
				(length 7.62)
				(name "TMS"
					(effects
						(font
							(size 1.27 1.27)
						)
					)
				)
				(number "5"
					(effects
						(font
							(size 1.27 1.27)
						)
					)
				)
			)
			(pin input clock
				(at -17.78 10.16 0)
				(length 7.62)
				(name "TCK"
					(effects
						(font
							(size 1.27 1.27)
						)
					)
				)
				(number "6"
					(effects
						(font
							(size 1.27 1.27)
						)
					)
				)
			)
			(pin open_collector line
				(at 17.78 2.54 180)
				(length 7.62)
				(name "D4/CF"
					(effects
						(font
							(size 1.27 1.27)
						)
					)
				)
				(number "7"
					(effects
						(font
							(size 1.27 1.27)
						)
					)
				)
			)
			(pin input line
				(at -17.78 1.27 0)
				(length 7.62)
				(name "OE/RESET"
					(effects
						(font
							(size 1.27 1.27)
						)
					)
				)
				(number "8"
					(effects
						(font
							(size 1.27 1.27)
						)
					)
				)
			)
			(pin output line
				(at 17.78 -2.54 180)
				(length 7.62)
				(name "D6"
					(effects
						(font
							(size 1.27 1.27)
						)
					)
				)
				(number "9"
					(effects
						(font
							(size 1.27 1.27)
						)
					)
				)
			)
		)
	)
	(symbol "XCF08P"
		(pin_names
			(offset 1.016)
		)
		(exclude_from_sim no)
		(in_bom yes)
		(on_board yes)
		(property "Reference" "U"
			(at 0 33.02 0)
			(effects
				(font
					(size 1.27 1.27)
				)
			)
		)
		(property "Value" "XCF08P"
			(at 0 -33.02 0)
			(effects
				(font
					(size 1.27 1.27)
				)
			)
		)
		(property "Footprint" ""
			(at 0 0 0)
			(effects
				(font
					(size 1.27 1.27)
				)
				(hide yes)
			)
		)
		(property "Datasheet" "https://www.xilinx.com/support/documentation/data_sheets/ds123.pdf"
			(at 0 0 0)
			(effects
				(font
					(size 1.27 1.27)
				)
				(hide yes)
			)
		)
		(property "Description" "Platform Flash In-System PROM"
			(at 0 0 0)
			(effects
				(font
					(size 1.27 1.27)
				)
				(hide yes)
			)
		)
		(property "ki_keywords" "PROM FLASH"
			(at 0 0 0)
			(effects
				(font
					(size 1.27 1.27)
				)
				(hide yes)
			)
		)
		(symbol "XCF08P_0_1"
			(rectangle
				(start -8.89 31.75)
				(end 8.89 -31.75)
				(stroke
					(width 0.254)
					(type default)
				)
				(fill
					(type background)
				)
			)
		)
		(symbol "XCF08P_1_1"
			(pin power_in line
				(at -16.51 -10.16 0)
				(length 7.62)
				(name "GND"
					(effects
						(font
							(size 1.27 1.27)
						)
					)
				)
				(number "A1"
					(effects
						(font
							(size 1.27 1.27)
						)
					)
				)
			)
			(pin power_in line
				(at -16.51 -12.7 0)
				(length 7.62)
				(name "GND"
					(effects
						(font
							(size 1.27 1.27)
						)
					)
				)
				(number "A2"
					(effects
						(font
							(size 1.27 1.27)
						)
					)
				)
			)
			(pin input line
				(at -16.51 15.24 0)
				(length 7.62)
				(name "OE/RST"
					(effects
						(font
							(size 1.27 1.27)
						)
					)
				)
				(number "A3"
					(effects
						(font
							(size 1.27 1.27)
						)
					)
				)
			)
			(pin tri_state line
				(at 16.51 15.24 180)
				(length 7.62)
				(name "D6"
					(effects
						(font
							(size 1.27 1.27)
						)
					)
				)
				(number "A5"
					(effects
						(font
							(size 1.27 1.27)
						)
					)
				)
			)
			(pin tri_state line
				(at 16.51 12.7 180)
				(length 7.62)
				(name "D7"
					(effects
						(font
							(size 1.27 1.27)
						)
					)
				)
				(number "A6"
					(effects
						(font
							(size 1.27 1.27)
						)
					)
				)
			)
			(pin power_in line
				(at 16.51 -10.16 180)
				(length 7.62)
				(name "VCCINT"
					(effects
						(font
							(size 1.27 1.27)
						)
					)
				)
				(number "B1"
					(effects
						(font
							(size 1.27 1.27)
						)
					)
				)
			)
			(pin power_in line
				(at 16.51 -19.05 180)
				(length 7.62)
				(name "VCCO"
					(effects
						(font
							(size 1.27 1.27)
						)
					)
				)
				(number "B2"
					(effects
						(font
							(size 1.27 1.27)
						)
					)
				)
			)
			(pin input clock
				(at -16.51 0 0)
				(length 7.62)
				(name "CLK"
					(effects
						(font
							(size 1.27 1.27)
						)
					)
				)
				(number "B3"
					(effects
						(font
							(size 1.27 1.27)
						)
					)
				)
			)
			(pin input input_low
				(at -16.51 -2.54 0)
				(length 7.62)
				(name "CE"
					(effects
						(font
							(size 1.27 1.27)
						)
					)
				)
				(number "B4"
					(effects
						(font
							(size 1.27 1.27)
						)
					)
				)
			)
			(pin tri_state line
				(at 16.51 17.78 180)
				(length 7.62)
				(name "D5"
					(effects
						(font
							(size 1.27 1.27)
						)
					)
				)
				(number "B5"
					(effects
						(font
							(size 1.27 1.27)
						)
					)
				)
			)
			(pin power_in line
				(at -16.51 -15.24 0)
				(length 7.62)
				(name "GND"
					(effects
						(font
							(size 1.27 1.27)
						)
					)
				)
				(number "B6"
					(effects
						(font
							(size 1.27 1.27)
						)
					)
				)
			)
			(pin input line
				(at -16.51 17.78 0)
				(length 7.62)
				(name "BUSY"
					(effects
						(font
							(size 1.27 1.27)
						)
					)
				)
				(number "C1"
					(effects
						(font
							(size 1.27 1.27)
						)
					)
				)
			)
			(pin output clock
				(at 16.51 0 180)
				(length 7.62)
				(name "CLKOUT"
					(effects
						(font
							(size 1.27 1.27)
						)
					)
				)
				(number "C2"
					(effects
						(font
							(size 1.27 1.27)
						)
					)
				)
			)
			(pin tri_state line
				(at 16.51 20.32 180)
				(length 7.62)
				(name "D4"
					(effects
						(font
							(size 1.27 1.27)
						)
					)
				)
				(number "C5"
					(effects
						(font
							(size 1.27 1.27)
						)
					)
				)
			)
			(pin power_in line
				(at 16.51 -21.59 180)
				(length 7.62)
				(name "VCCO"
					(effects
						(font
							(size 1.27 1.27)
						)
					)
				)
				(number "C6"
					(effects
						(font
							(size 1.27 1.27)
						)
					)
				)
			)
			(pin bidirectional input_low
				(at -16.51 -5.08 0)
				(length 7.62)
				(name "CF"
					(effects
						(font
							(size 1.27 1.27)
						)
					)
				)
				(number "D1"
					(effects
						(font
							(size 1.27 1.27)
						)
					)
				)
			)
			(pin output output_low
				(at 16.51 -2.54 180)
				(length 7.62)
				(name "CEO"
					(effects
						(font
							(size 1.27 1.27)
						)
					)
				)
				(number "D2"
					(effects
						(font
							(size 1.27 1.27)
						)
					)
				)
			)
			(pin tri_state line
				(at 16.51 22.86 180)
				(length 7.62)
				(name "D3"
					(effects
						(font
							(size 1.27 1.27)
						)
					)
				)
				(number "D5"
					(effects
						(font
							(size 1.27 1.27)
						)
					)
				)
			)
			(pin power_in line
				(at 16.51 -26.67 180)
				(length 7.62)
				(name "VCCO"
					(effects
						(font
							(size 1.27 1.27)
						)
					)
				)
				(number "D6"
					(effects
						(font
							(size 1.27 1.27)
						)
					)
				)
			)
			(pin power_in line
				(at 16.51 -12.7 180)
				(length 7.62)
				(name "VCCINT"
					(effects
						(font
							(size 1.27 1.27)
						)
					)
				)
				(number "E1"
					(effects
						(font
							(size 1.27 1.27)
						)
					)
				)
			)
			(pin input line
				(at -16.51 27.94 0)
				(length 7.62)
				(name "TMS"
					(effects
						(font
							(size 1.27 1.27)
						)
					)
				)
				(number "E2"
					(effects
						(font
							(size 1.27 1.27)
						)
					)
				)
			)
			(pin tri_state line
				(at 16.51 25.4 180)
				(length 7.62)
				(name "D2"
					(effects
						(font
							(size 1.27 1.27)
						)
					)
				)
				(number "E5"
					(effects
						(font
							(size 1.27 1.27)
						)
					)
				)
			)
			(pin output line
				(at -16.51 22.86 0)
				(length 7.62)
				(name "TDO"
					(effects
						(font
							(size 1.27 1.27)
						)
					)
				)
				(number "E6"
					(effects
						(font
							(size 1.27 1.27)
						)
					)
				)
			)
			(pin power_in line
				(at -16.51 -17.78 0)
				(length 7.62)
				(name "GND"
					(effects
						(font
							(size 1.27 1.27)
						)
					)
				)
				(number "F1"
					(effects
						(font
							(size 1.27 1.27)
						)
					)
				)
			)
			(pin power_in line
				(at -16.51 -20.32 0)
				(length 7.62)
				(name "GND"
					(effects
						(font
							(size 1.27 1.27)
						)
					)
				)
				(number "F5"
					(effects
						(font
							(size 1.27 1.27)
						)
					)
				)
			)
			(pin power_in line
				(at -16.51 -22.86 0)
				(length 7.62)
				(name "GND"
					(effects
						(font
							(size 1.27 1.27)
						)
					)
				)
				(number "F6"
					(effects
						(font
							(size 1.27 1.27)
						)
					)
				)
			)
			(pin input line
				(at -16.51 25.4 0)
				(length 7.62)
				(name "TDI"
					(effects
						(font
							(size 1.27 1.27)
						)
					)
				)
				(number "G1"
					(effects
						(font
							(size 1.27 1.27)
						)
					)
				)
			)
			(pin input line
				(at -16.51 10.16 0)
				(length 7.62)
				(name "REV-SEL0"
					(effects
						(font
							(size 1.27 1.27)
						)
					)
				)
				(number "G3"
					(effects
						(font
							(size 1.27 1.27)
						)
					)
				)
			)
			(pin input line
				(at -16.51 7.62 0)
				(length 7.62)
				(name "REV-SEL1"
					(effects
						(font
							(size 1.27 1.27)
						)
					)
				)
				(number "G4"
					(effects
						(font
							(size 1.27 1.27)
						)
					)
				)
			)
			(pin power_in line
				(at 16.51 -24.13 180)
				(length 7.62)
				(name "VCCO"
					(effects
						(font
							(size 1.27 1.27)
						)
					)
				)
				(number "G5"
					(effects
						(font
							(size 1.27 1.27)
						)
					)
				)
			)
			(pin power_in line
				(at 16.51 -15.24 180)
				(length 7.62)
				(name "VCCINT"
					(effects
						(font
							(size 1.27 1.27)
						)
					)
				)
				(number "G6"
					(effects
						(font
							(size 1.27 1.27)
						)
					)
				)
			)
			(pin power_in line
				(at -16.51 -25.4 0)
				(length 7.62)
				(name "GND"
					(effects
						(font
							(size 1.27 1.27)
						)
					)
				)
				(number "H1"
					(effects
						(font
							(size 1.27 1.27)
						)
					)
				)
			)
			(pin power_in line
				(at 16.51 -30.48 180)
				(length 7.62)
				(name "VCCJ"
					(effects
						(font
							(size 1.27 1.27)
						)
					)
				)
				(number "H2"
					(effects
						(font
							(size 1.27 1.27)
						)
					)
				)
			)
			(pin input line
				(at -16.51 30.48 0)
				(length 7.62)
				(name "TCK"
					(effects
						(font
							(size 1.27 1.27)
						)
					)
				)
				(number "H3"
					(effects
						(font
							(size 1.27 1.27)
						)
					)
				)
			)
			(pin input line
				(at -16.51 5.08 0)
				(length 7.62)
				(name "/EN-EXT-SEL"
					(effects
						(font
							(size 1.27 1.27)
						)
					)
				)
				(number "H4"
					(effects
						(font
							(size 1.27 1.27)
						)
					)
				)
			)
			(pin tri_state line
				(at 16.51 27.94 180)
				(length 7.62)
				(name "D1"
					(effects
						(font
							(size 1.27 1.27)
						)
					)
				)
				(number "H5"
					(effects
						(font
							(size 1.27 1.27)
						)
					)
				)
			)
			(pin tri_state line
				(at 16.51 30.48 180)
				(length 7.62)
				(name "D0"
					(effects
						(font
							(size 1.27 1.27)
						)
					)
				)
				(number "H6"
					(effects
						(font
							(size 1.27 1.27)
						)
					)
				)
			)
		)
	)
)